﻿Build started 8/23/2021 3:34:38 PM.
     1>Project "C:\AUTHGURU LONGMAI DONGLE\AG_QUICKPROTECT\AG_QUICKPROTECT\AG_QUICKPROTECT.vcxproj" on node 3 (rebuild target(s)).
     1>_PrepareForClean:
         Deleting file "Release\AG_QUICKPROTECT.lastbuildstate".
       InitializeBuildStatus:
         Creating "Release\AG_QUICKPROTECT.unsuccessfulbuild" because "AlwaysCreate" was specified.
       ClCompile:
         C:\Program Files (x86)\Microsoft Visual Studio 10.0\VC\bin\CL.exe /c /Zi /nologo /W3 /WX- /O2 /Oi /Oy- /GL /D WIN32 /D _WINDOWS /D NDEBUG /D _MBCS /Gm- /EHsc /MT /GS /Gy /fp:precise /Zc:wchar_t /Zc:forScope /Yc"StdAfx.h" /Fp"Release\AG_QUICKPROTECT.pch" /Fo"Release\\" /Fd"Release\vc100.pdb" /Gd /TP /analyze- /errorReport:prompt stdafx.cpp
         stdafx.cpp
         C:\Program Files (x86)\Microsoft Visual Studio 10.0\VC\bin\CL.exe /c /Zi /nologo /W3 /WX- /O2 /Oi /Oy- /GL /D WIN32 /D _WINDOWS /D NDEBUG /D _MBCS /Gm- /EHsc /MT /GS /Gy /fp:precise /Zc:wchar_t /Zc:forScope /Yu"StdAfx.h" /Fp"Release\AG_QUICKPROTECT.pch" /Fo"Release\\" /Fd"Release\vc100.pdb" /Gd /TP /analyze- /errorReport:prompt AG_QUICKPROTECT.cpp AG_QUICKPROTECTDlg.cpp Encrypt_decrypt.cpp filedlg.cpp
         AG_QUICKPROTECT.cpp
         AG_QUICKPROTECTDlg.cpp
     1>c:\authguru longmai dongle\ag_quickprotect\ag_quickprotect\Stringobf.h(17): warning C4996: 'strcpy': This function or variable may be unsafe. Consider using strcpy_s instead. To disable deprecation, use _CRT_SECURE_NO_WARNINGS. See online help for details.
                 C:\Program Files (x86)\Microsoft Visual Studio 10.0\VC\include\string.h(105) : see declaration of 'strcpy'
     1>AG_QUICKPROTECTDlg.cpp(454): warning C4018: '<' : signed/unsigned mismatch
     1>AG_QUICKPROTECTDlg.cpp(569): warning C4018: '<' : signed/unsigned mismatch
     1>AG_QUICKPROTECTDlg.cpp(1517): warning C4101: 'mItemInfo' : unreferenced local variable
     1>AG_QUICKPROTECTDlg.cpp(1526): warning C4101: 'mItemInfo' : unreferenced local variable
     1>AG_QUICKPROTECTDlg.cpp(1541): warning C4101: 'mItemInfo' : unreferenced local variable
     1>AG_QUICKPROTECTDlg.cpp(1550): warning C4101: 'mItemInfo' : unreferenced local variable
     1>AG_QUICKPROTECTDlg.cpp(2941): warning C4101: 'mItemInfo' : unreferenced local variable
     1>AG_QUICKPROTECTDlg.cpp(2950): warning C4101: 'mItemInfo' : unreferenced local variable
     1>AG_QUICKPROTECTDlg.cpp(2966): warning C4101: 'mItemInfo' : unreferenced local variable
     1>AG_QUICKPROTECTDlg.cpp(2975): warning C4101: 'mItemInfo' : unreferenced local variable
     1>AG_QUICKPROTECTDlg.cpp(2991): warning C4101: 'mItemInfo' : unreferenced local variable
     1>AG_QUICKPROTECTDlg.cpp(3013): warning C4101: 'mItemInfo' : unreferenced local variable
         Encrypt_decrypt.cpp
     1>Encrypt_decrypt.cpp(62): warning C4018: '<' : signed/unsigned mismatch
         filedlg.cpp
       ResourceCompile:
         C:\Program Files (x86)\Microsoft SDKs\Windows\v7.0A\bin\rc.exe /D NDEBUG /l"0x0409" /IRelease\ /nologo /fo"Release\AG_QUICKPROTECT.res" AG_QUICKPROTECT.rc 
       Link:
         C:\Program Files (x86)\Microsoft Visual Studio 10.0\VC\bin\link.exe /ERRORREPORT:PROMPT /OUT:"C:\AUTHGURU LONGMAI DONGLE\AG_QUICKPROTECT\AG_QUICKPROTECT\Release\AG_QUICKPROTECT.exe" /INCREMENTAL:NO /NOLOGO libeay32.lib AG_CLIENT.lib /MANIFEST /ManifestFile:"Release\AG_QUICKPROTECT.exe.intermediate.manifest" /MANIFESTUAC:"level='requireAdministrator' uiAccess='false'" /DEBUG /PDB:"C:\AUTHGURU LONGMAI DONGLE\AG_QUICKPROTECT\AG_QUICKPROTECT\Release\AG_QUICKPROTECT.pdb" /SUBSYSTEM:WINDOWS /OPT:REF /OPT:ICF /LTCG /TLBID:1 /DYNAMICBASE /NXCOMPAT /IMPLIB:"C:\AUTHGURU LONGMAI DONGLE\AG_QUICKPROTECT\AG_QUICKPROTECT\Release\AG_QUICKPROTECT.lib" /MACHINE:X86 Release\AG_QUICKPROTECT.res
         Release\AG_QUICKPROTECT.obj
         Release\AG_QUICKPROTECTDlg.obj
         Release\Encrypt_decrypt.obj
         Release\filedlg.obj
         Release\stdafx.obj
            Creating library C:\AUTHGURU LONGMAI DONGLE\AG_QUICKPROTECT\AG_QUICKPROTECT\Release\AG_QUICKPROTECT.lib and object C:\AUTHGURU LONGMAI DONGLE\AG_QUICKPROTECT\AG_QUICKPROTECT\Release\AG_QUICKPROTECT.exp
         Generating code
         Finished generating code
         AG_QUICKPROTECT.vcxproj -> C:\AUTHGURU LONGMAI DONGLE\AG_QUICKPROTECT\AG_QUICKPROTECT\Release\AG_QUICKPROTECT.exe
       Manifest:
         C:\Windows\SYSTEM32\mt.exe /nologo /verbose /outputresource:"C:\AUTHGURU LONGMAI DONGLE\AG_QUICKPROTECT\AG_QUICKPROTECT\Release\AG_QUICKPROTECT.exe;#1" /manifest Release\AG_QUICKPROTECT.exe.intermediate.manifest "C:\Program Files (x86)\Microsoft Visual Studio 10.0\VC\Include\Manifest\dpiaware.manifest"
       PostBuildEvent:
         copy.bat
         :VCEnd
                 1 file(s) copied.
       FinalizeBuildStatus:
         Deleting file "Release\AG_QUICKPROTECT.unsuccessfulbuild".
         Touching "Release\AG_QUICKPROTECT.lastbuildstate".
     1>Done Building Project "C:\AUTHGURU LONGMAI DONGLE\AG_QUICKPROTECT\AG_QUICKPROTECT\AG_QUICKPROTECT.vcxproj" (rebuild target(s)).

Build succeeded.

Time Elapsed 00:00:08.98
