^C:\AUTHGURU LONGMAI DONGLE\AG_KEYINFO\AG_KEYINFO\RELEASE\AG_KEYINFO.OBJ|C:\AUTHGURU LONGMAI DONGLE\AG_KEYINFO\AG_KEYINFO\RELEASE\AG_KEYINFO.RES|C:\AUTHGURU LONGMAI DONGLE\AG_KEYINFO\AG_KEYINFO\RELEASE\AG_KEYINFODLG.OBJ|C:\AUTHGURU LONGMAI DONGLE\AG_KEYINFO\AG_KEYINFO\RELEASE\STDAFX.OBJ
C:\AUTHGURU LONGMAI DONGLE\AG_KEYINFO\AG_KEYINFO\RELEASE\AG_KEYINFO.EXE
C:\AUTHGURU LONGMAI DONGLE\AG_KEYINFO\AG_KEYINFO\RELEASE\AG_KEYINFO.EXE.INTERMEDIATE.MANIFEST
C:\AUTHGURU LONGMAI DONGLE\AG_KEYINFO\AG_KEYINFO\RELEASE\AG_KEYINFO.PDB
