^C:\AUTHGURU LONGMAI DONGLE\AG_KEYINFO\AG_KEYINFO\RELEASE\AG_KEYINFO.EXE.INTERMEDIATE.MANIFEST|C:\PROGRAM FILES (X86)\MICROSOFT VISUAL STUDIO 10.0\VC\INCLUDE\MANIFEST\DPIAWARE.MANIFEST
C:\PROGRAM FILES (X86)\MICROSOFT VISUAL STUDIO 10.0\VC\INCLUDE\MANIFEST\DPIAWARE.MANIFEST
C:\WINDOWS\REGISTRATION\R000000000018.CLB
C:\WINDOWS\MICROSOFT.NET\FRAMEWORK\V2.0.50727\MSCORWKS.DLL
C:\WINDOWS\MICROSOFT.NET\FRAMEWORK\V4.0.30319\CLR.DLL
C:\WINDOWS\SYSWOW64\MT.EXE.CONFIG
C:\AUTHGURU LONGMAI DONGLE\AG_KEYINFO\AG_KEYINFO\RELEASE\AG_KEYINFO.EXE
