^C:\USERS\INFO\DOCUMENTS\VISUAL STUDIO 2010\PROJECTS\AG_QUICKPROTECT_CMD\AG_QUICKPROTECT_CMD\DEBUG\AG_QUICKPROTECT_CMD.EXE.EMBED.MANIFEST.RES|C:\USERS\INFO\DOCUMENTS\VISUAL STUDIO 2010\PROJECTS\AG_QUICKPROTECT_CMD\AG_QUICKPROTECT_CMD\DEBUG\AG_QUICKPROTECT_CMD.OBJ|C:\USERS\INFO\DOCUMENTS\VISUAL STUDIO 2010\PROJECTS\AG_QUICKPROTECT_CMD\AG_QUICKPROTECT_CMD\DEBUG\STDAFX.OBJ
/ERRORREPORT:PROMPT /OUT:"c:\users\info\documents\visual studio 2010\Projects\AG_QuickProtect_cmd\Debug\AG_QuickProtect_cmd.exe" /INCREMENTAL /NOLOGO kernel32.lib user32.lib gdi32.lib winspool.lib comdlg32.lib advapi32.lib shell32.lib ole32.lib oleaut32.lib uuid.lib odbc32.lib odbccp32.lib /MANIFEST /ManifestFile:"Debug\AG_QuickProtect_cmd.exe.intermediate.manifest" /MANIFESTUAC:"level='asInvoker' uiAccess='false'" /DEBUG /PDB:"c:\users\info\documents\visual studio 2010\Projects\AG_QuickProtect_cmd\Debug\AG_QuickProtect_cmd.pdb" /SUBSYSTEM:CONSOLE /TLBID:1 /DYNAMICBASE /NXCOMPAT /IMPLIB:"c:\users\info\documents\visual studio 2010\Projects\AG_QuickProtect_cmd\Debug\AG_QuickProtect_cmd.lib" /MACHINE:X86 Debug\AG_QuickProtect_cmd.exe.embed.manifest.res
Debug\AG_QuickProtect_cmd.obj
Debug\stdafx.obj
