^E:\AUTHGURU HL LATEST DONGLE\BASTION64.DLL\DLL FILE\STDAFX.CPP
E:\AUTHGURU HL LATEST DONGLE\BASTION64.DLL\DLL FILE\DEBUG\DLL FILE 64.PCH
E:\AUTHGURU HL LATEST DONGLE\BASTION64.DLL\DLL FILE\DEBUG\STDAFX.OBJ
E:\AUTHGURU HL LATEST DONGLE\BASTION64.DLL\DLL FILE\DEBUG\VC100.PDB
^E:\AUTHGURU HL LATEST DONGLE\BASTION64.DLL\DLL FILE\DLL FILE.CPP
E:\AUTHGURU HL LATEST DONGLE\BASTION64.DLL\DLL FILE\DEBUG\VC100.PDB
