^C:\AUTHGURU LONGMAI DONGLE\BASTION_V2.DLL\DLL FILE\STDAFX.CPP
C:\AUTHGURU LONGMAI DONGLE\BASTION_V2.DLL\DLL FILE\RELEASE\BASTION_V2.PCH
C:\AUTHGURU LONGMAI DONGLE\BASTION_V2.DLL\DLL FILE\RELEASE\STDAFX.OBJ
C:\AUTHGURU LONGMAI DONGLE\BASTION_V2.DLL\DLL FILE\RELEASE\VC100.PDB
^C:\AUTHGURU LONGMAI DONGLE\BASTION_V2.DLL\DLL FILE\DLL FILE.CPP
C:\AUTHGURU LONGMAI DONGLE\BASTION_V2.DLL\DLL FILE\RELEASE\DLL FILE.OBJ
C:\AUTHGURU LONGMAI DONGLE\BASTION_V2.DLL\DLL FILE\RELEASE\VC100.PDB
