^C:\USERS\INFO\DOCUMENTS\VISUAL STUDIO 2010\PROJECTS\AG_QUICKPROTECT_CMD\AG_QUICKPROTECT_CMD\X64\DEBUG\AG_QUICKPROTECT_CMD.EXE.EMBED.MANIFEST.RES|C:\USERS\INFO\DOCUMENTS\VISUAL STUDIO 2010\PROJECTS\AG_QUICKPROTECT_CMD\AG_QUICKPROTECT_CMD\X64\DEBUG\AG_QUICKPROTECT_CMD.OBJ|C:\USERS\INFO\DOCUMENTS\VISUAL STUDIO 2010\PROJECTS\AG_QUICKPROTECT_CMD\AG_QUICKPROTECT_CMD\X64\DEBUG\STDAFX.OBJ
C:\USERS\INFO\DOCUMENTS\VISUAL STUDIO 2010\PROJECTS\AG_QUICKPROTECT_CMD\X64\DEBUG\AG_QUICKPROTECT_CMD.ILK
C:\USERS\INFO\DOCUMENTS\VISUAL STUDIO 2010\PROJECTS\AG_QUICKPROTECT_CMD\X64\DEBUG\AG_QUICKPROTECT_CMD.EXE
C:\USERS\INFO\DOCUMENTS\VISUAL STUDIO 2010\PROJECTS\AG_QUICKPROTECT_CMD\AG_QUICKPROTECT_CMD\X64\DEBUG\AG_QUICKPROTECT_CMD.EXE.INTERMEDIATE.MANIFEST
C:\USERS\INFO\DOCUMENTS\VISUAL STUDIO 2010\PROJECTS\AG_QUICKPROTECT_CMD\X64\DEBUG\AG_QUICKPROTECT_CMD.PDB
