^C:\AUTHGURU LONGMAI DONGLE\BASIC SDK\AG_AUTHENTICATOR_SL\AG_AUTHENTICATOR\RELEASE\ACCOUNT.OBJ|C:\AUTHGURU LONGMAI DONGLE\BASIC SDK\AG_AUTHENTICATOR_SL\AG_AUTHENTICATOR\RELEASE\AG_AUTHENTICATOR.OBJ|C:\AUTHGURU LONGMAI DONGLE\BASIC SDK\AG_AUTHENTICATOR_SL\AG_AUTHENTICATOR\RELEASE\AG_AUTHENTICATOR.RES|C:\AUTHGURU LONGMAI DONGLE\BASIC SDK\AG_AUTHENTICATOR_SL\AG_AUTHENTICATOR\RELEASE\AG_AUTHENTICATORDLG.OBJ|C:\AUTHGURU LONGMAI DONGLE\BASIC SDK\AG_AUTHENTICATOR_SL\AG_AUTHENTICATOR\RELEASE\AG_LICENSE.OBJ|C:\AUTHGURU LONGMAI DONGLE\BASIC SDK\AG_AUTHENTICATOR_SL\AG_AUTHENTICATOR\RELEASE\CRITERIA.OBJ|C:\AUTHGURU LONGMAI DONGLE\BASIC SDK\AG_AUTHENTICATOR_SL\AG_AUTHENTICATOR\RELEASE\DATE_YEAR.OBJ|C:\AUTHGURU LONGMAI DONGLE\BASIC SDK\AG_AUTHENTICATOR_SL\AG_AUTHENTICATOR\RELEASE\DIVIDEINFO.OBJ|C:\AUTHGURU LONGMAI DONGLE\BASIC SDK\AG_AUTHENTICATOR_SL\AG_AUTHENTICATOR\RELEASE\ENCRYPT_DECRYPT.OBJ|C:\AUTHGURU LONGMAI DONGLE\BASIC SDK\AG_AUTHENTICATOR_SL\AG_AUTHENTICATOR\RELEASE\FILEDLG.OBJ|C:\AUTHGURU LONGMAI DONGLE\BASIC SDK\AG_AUTHENTICATOR_SL\AG_AUTHENTICATOR\RELEASE\HARDDISKID.OBJ|C:\AUTHGURU LONGMAI DONGLE\BASIC SDK\AG_AUTHENTICATOR_SL\AG_AUTHENTICATOR\RELEASE\READWRITESECTOR.OBJ|C:\AUTHGURU LONGMAI DONGLE\BASIC SDK\AG_AUTHENTICATOR_SL\AG_AUTHENTICATOR\RELEASE\SERVER.OBJ|C:\AUTHGURU LONGMAI DONGLE\BASIC SDK\AG_AUTHENTICATOR_SL\AG_AUTHENTICATOR\RELEASE\STDAFX.OBJ
/ERRORREPORT:PROMPT /OUT:"C:\AUTHGURU LONGMAI DONGLE\BASIC SDK\AG_AUTHENTICATOR_SL\AG_AUTHENTICATOR\Release\AG_HL.exe" /INCREMENTAL:NO /NOLOGO libeay32.lib Setupapi.lib Sense_LCst.lib DngX32.lib SmartX1AppLite.lib /NODEFAULTLIB:msvcrt.lib /MANIFEST /ManifestFile:"Release\AG_HL.exe.intermediate.manifest" /MANIFESTUAC:"level='requireAdministrator' uiAccess='false'" /DEBUG /PDB:"C:\AUTHGURU LONGMAI DONGLE\BASIC SDK\AG_AUTHENTICATOR_SL\AG_AUTHENTICATOR\Release\AG_HL.pdb" /SUBSYSTEM:WINDOWS /OPT:REF /OPT:ICF /LTCG /TLBID:1 /DYNAMICBASE /NXCOMPAT /IMPLIB:"C:\AUTHGURU LONGMAI DONGLE\BASIC SDK\AG_AUTHENTICATOR_SL\AG_AUTHENTICATOR\Release\AG_HL.lib" /MACHINE:X86 Release\AG_AUTHENTICATOR.res
Release\Account.obj
Release\AG_AUTHENTICATOR.obj
Release\AG_AUTHENTICATORDlg.obj
Release\AG_LICENSE.obj
Release\criteria.obj
Release\DATE_YEAR.obj
Release\DIVIDEINFO.obj
Release\Encrypt_decrypt.obj
Release\filedlg.obj
Release\HARDDISKID.obj
Release\READWRITESECTOR.obj
Release\server.obj
Release\stdafx.obj
