^C:\AUTHGURU LONGMAI DONGLE\BASIC SDK\AG_AUTHENTICATOR_SL\AG_AUTHENTICATOR\RELEASE\ACCOUNT.OBJ|C:\AUTHGURU LONGMAI DONGLE\BASIC SDK\AG_AUTHENTICATOR_SL\AG_AUTHENTICATOR\RELEASE\AG_AUTHENTICATOR.OBJ|C:\AUTHGURU LONGMAI DONGLE\BASIC SDK\AG_AUTHENTICATOR_SL\AG_AUTHENTICATOR\RELEASE\AG_AUTHENTICATOR.RES|C:\AUTHGURU LONGMAI DONGLE\BASIC SDK\AG_AUTHENTICATOR_SL\AG_AUTHENTICATOR\RELEASE\AG_AUTHENTICATORDLG.OBJ|C:\AUTHGURU LONGMAI DONGLE\BASIC SDK\AG_AUTHENTICATOR_SL\AG_AUTHENTICATOR\RELEASE\AG_LICENSE.OBJ|C:\AUTHGURU LONGMAI DONGLE\BASIC SDK\AG_AUTHENTICATOR_SL\AG_AUTHENTICATOR\RELEASE\CRITERIA.OBJ|C:\AUTHGURU LONGMAI DONGLE\BASIC SDK\AG_AUTHENTICATOR_SL\AG_AUTHENTICATOR\RELEASE\DATE_YEAR.OBJ|C:\AUTHGURU LONGMAI DONGLE\BASIC SDK\AG_AUTHENTICATOR_SL\AG_AUTHENTICATOR\RELEASE\DIVIDEINFO.OBJ|C:\AUTHGURU LONGMAI DONGLE\BASIC SDK\AG_AUTHENTICATOR_SL\AG_AUTHENTICATOR\RELEASE\ENCRYPT_DECRYPT.OBJ|C:\AUTHGURU LONGMAI DONGLE\BASIC SDK\AG_AUTHENTICATOR_SL\AG_AUTHENTICATOR\RELEASE\FILEDLG.OBJ|C:\AUTHGURU LONGMAI DONGLE\BASIC SDK\AG_AUTHENTICATOR_SL\AG_AUTHENTICATOR\RELEASE\HARDDISKID.OBJ|C:\AUTHGURU LONGMAI DONGLE\BASIC SDK\AG_AUTHENTICATOR_SL\AG_AUTHENTICATOR\RELEASE\READWRITESECTOR.OBJ|C:\AUTHGURU LONGMAI DONGLE\BASIC SDK\AG_AUTHENTICATOR_SL\AG_AUTHENTICATOR\RELEASE\SERVER.OBJ|C:\AUTHGURU LONGMAI DONGLE\BASIC SDK\AG_AUTHENTICATOR_SL\AG_AUTHENTICATOR\RELEASE\STDAFX.OBJ
C:\AUTHGURU LONGMAI DONGLE\BASIC SDK\AG_AUTHENTICATOR_SL\AG_AUTHENTICATOR\LIBEAY32.LIB
C:\PROGRAM FILES (X86)\MICROSOFT SDKS\WINDOWS\V7.0A\LIB\SETUPAPI.LIB
C:\AUTHGURU LONGMAI DONGLE\BASIC SDK\AG_AUTHENTICATOR_SL\AG_AUTHENTICATOR\SENSE_LCST.LIB
C:\AUTHGURU LONGMAI DONGLE\BASIC SDK\AG_AUTHENTICATOR_SL\AG_AUTHENTICATOR\DNGX32.LIB
C:\AUTHGURU LONGMAI DONGLE\BASIC SDK\AG_AUTHENTICATOR_SL\AG_AUTHENTICATOR\SMARTX1APPLITE.LIB
C:\AUTHGURU LONGMAI DONGLE\BASIC SDK\AG_AUTHENTICATOR_SL\AG_AUTHENTICATOR\RELEASE\AG_AUTHENTICATOR.RES
C:\AUTHGURU LONGMAI DONGLE\BASIC SDK\AG_AUTHENTICATOR_SL\AG_AUTHENTICATOR\RELEASE\ACCOUNT.OBJ
C:\AUTHGURU LONGMAI DONGLE\BASIC SDK\AG_AUTHENTICATOR_SL\AG_AUTHENTICATOR\RELEASE\AG_AUTHENTICATOR.OBJ
C:\AUTHGURU LONGMAI DONGLE\BASIC SDK\AG_AUTHENTICATOR_SL\AG_AUTHENTICATOR\RELEASE\AG_AUTHENTICATORDLG.OBJ
C:\AUTHGURU LONGMAI DONGLE\BASIC SDK\AG_AUTHENTICATOR_SL\AG_AUTHENTICATOR\RELEASE\AG_LICENSE.OBJ
C:\AUTHGURU LONGMAI DONGLE\BASIC SDK\AG_AUTHENTICATOR_SL\AG_AUTHENTICATOR\RELEASE\CRITERIA.OBJ
C:\AUTHGURU LONGMAI DONGLE\BASIC SDK\AG_AUTHENTICATOR_SL\AG_AUTHENTICATOR\RELEASE\DATE_YEAR.OBJ
C:\AUTHGURU LONGMAI DONGLE\BASIC SDK\AG_AUTHENTICATOR_SL\AG_AUTHENTICATOR\RELEASE\DIVIDEINFO.OBJ
C:\AUTHGURU LONGMAI DONGLE\BASIC SDK\AG_AUTHENTICATOR_SL\AG_AUTHENTICATOR\RELEASE\ENCRYPT_DECRYPT.OBJ
C:\AUTHGURU LONGMAI DONGLE\BASIC SDK\AG_AUTHENTICATOR_SL\AG_AUTHENTICATOR\RELEASE\FILEDLG.OBJ
C:\AUTHGURU LONGMAI DONGLE\BASIC SDK\AG_AUTHENTICATOR_SL\AG_AUTHENTICATOR\RELEASE\HARDDISKID.OBJ
C:\AUTHGURU LONGMAI DONGLE\BASIC SDK\AG_AUTHENTICATOR_SL\AG_AUTHENTICATOR\RELEASE\READWRITESECTOR.OBJ
C:\AUTHGURU LONGMAI DONGLE\BASIC SDK\AG_AUTHENTICATOR_SL\AG_AUTHENTICATOR\RELEASE\SERVER.OBJ
C:\AUTHGURU LONGMAI DONGLE\BASIC SDK\AG_AUTHENTICATOR_SL\AG_AUTHENTICATOR\RELEASE\STDAFX.OBJ
C:\WINDOWS\GLOBALIZATION\SORTING\SORTDEFAULT.NLS
C:\PROGRAM FILES (X86)\MICROSOFT VISUAL STUDIO 10.0\VC\BIN\C2.DLL
C:\PROGRAM FILES (X86)\MICROSOFT VISUAL STUDIO 10.0\VC\ATLMFC\LIB\NAFXCW.LIB
C:\PROGRAM FILES (X86)\MICROSOFT VISUAL STUDIO 10.0\VC\LIB\LIBCMT.LIB
C:\PROGRAM FILES (X86)\MICROSOFT SDKS\WINDOWS\V7.0A\LIB\KERNEL32.LIB
C:\PROGRAM FILES (X86)\MICROSOFT SDKS\WINDOWS\V7.0A\LIB\USER32.LIB
C:\PROGRAM FILES (X86)\MICROSOFT SDKS\WINDOWS\V7.0A\LIB\GDI32.LIB
C:\PROGRAM FILES (X86)\MICROSOFT SDKS\WINDOWS\V7.0A\LIB\MSIMG32.LIB
C:\PROGRAM FILES (X86)\MICROSOFT SDKS\WINDOWS\V7.0A\LIB\COMDLG32.LIB
C:\PROGRAM FILES (X86)\MICROSOFT SDKS\WINDOWS\V7.0A\LIB\WINSPOOL.LIB
C:\PROGRAM FILES (X86)\MICROSOFT SDKS\WINDOWS\V7.0A\LIB\ADVAPI32.LIB
C:\PROGRAM FILES (X86)\MICROSOFT SDKS\WINDOWS\V7.0A\LIB\SHELL32.LIB
C:\PROGRAM FILES (X86)\MICROSOFT SDKS\WINDOWS\V7.0A\LIB\COMCTL32.LIB
C:\PROGRAM FILES (X86)\MICROSOFT SDKS\WINDOWS\V7.0A\LIB\SHLWAPI.LIB
C:\PROGRAM FILES (X86)\MICROSOFT SDKS\WINDOWS\V7.0A\LIB\UUID.LIB
C:\PROGRAM FILES (X86)\MICROSOFT VISUAL STUDIO 10.0\VC\ATLMFC\LIB\ATLS.LIB
C:\PROGRAM FILES (X86)\MICROSOFT SDKS\WINDOWS\V7.0A\LIB\OLE32.LIB
C:\PROGRAM FILES (X86)\MICROSOFT SDKS\WINDOWS\V7.0A\LIB\OLEAUT32.LIB
C:\PROGRAM FILES (X86)\MICROSOFT SDKS\WINDOWS\V7.0A\LIB\OLEDLG.LIB
C:\PROGRAM FILES (X86)\MICROSOFT SDKS\WINDOWS\V7.0A\LIB\URLMON.LIB
C:\PROGRAM FILES (X86)\MICROSOFT SDKS\WINDOWS\V7.0A\LIB\GDIPLUS.LIB
C:\PROGRAM FILES (X86)\MICROSOFT VISUAL STUDIO 10.0\VC\LIB\COMSUPPW.LIB
C:\PROGRAM FILES (X86)\MICROSOFT VISUAL STUDIO 10.0\VC\LIB\OLDNAMES.LIB
C:\PROGRAM FILES (X86)\MICROSOFT VISUAL STUDIO 10.0\VC\LIB\LIBCPMT.LIB
C:\PROGRAM FILES (X86)\MICROSOFT SDKS\WINDOWS\V7.0A\LIB\WS2_32.LIB
C:\PROGRAM FILES (X86)\MICROSOFT SDKS\WINDOWS\V7.0A\LIB\MSWSOCK.LIB
C:\AUTHGURU LONGMAI DONGLE\BASIC SDK\AG_AUTHENTICATOR_SL\AG_AUTHENTICATOR\STRENC.LIB
C:\PROGRAM FILES (X86)\MICROSOFT SDKS\WINDOWS\V7.0A\LIB\WINMM.LIB
C:\PROGRAM FILES (X86)\MICROSOFT SDKS\WINDOWS\V7.0A\LIB\OLEACC.LIB
C:\PROGRAM FILES (X86)\MICROSOFT SDKS\WINDOWS\V7.0A\LIB\IMM32.LIB
C:\PROGRAM FILES (X86)\MICROSOFT SDKS\WINDOWS\V7.0A\LIB\MSXML2.LIB
C:\WINDOWS\SYSTEM32\TZRES.DLL
C:\PROGRAM FILES (X86)\MICROSOFT VISUAL STUDIO 10.0\VC\BIN\1033\LINKUI.DLL
C:\AUTHGURU LONGMAI DONGLE\BASIC SDK\AG_AUTHENTICATOR_SL\AG_AUTHENTICATOR\RELEASE\AG_HL.EXP
C:\PROGRAM FILES (X86)\MICROSOFT VISUAL STUDIO 10.0\VC\BIN\1033\CLUI.DLL
C:\PROGRAM FILES (X86)\MICROSOFT VISUAL STUDIO 10.0\VC\BIN\CVTRES.EXE
