^C:\AUTHGURU LONGMAI DONGLE\AUTHGURU LM\SERVICENEW\STDAFX.CPP
C:\AUTHGURU LONGMAI DONGLE\AUTHGURU LM\SERVICENEW\RELEASE\AUTHGURU_LM.PCH
C:\AUTHGURU LONGMAI DONGLE\AUTHGURU LM\SERVICENEW\RELEASE\STDAFX.OBJ
C:\AUTHGURU LONGMAI DONGLE\AUTHGURU LM\SERVICENEW\RELEASE\VC100.PDB
^C:\AUTHGURU LONGMAI DONGLE\AUTHGURU LM\SERVICENEW\AG_LICENSE.CPP|C:\AUTHGURU LONGMAI DONGLE\AUTHGURU LM\SERVICENEW\DATE_YEAR.CPP|C:\AUTHGURU LONGMAI DONGLE\AUTHGURU LM\SERVICENEW\DIVIDEINFO.CPP|C:\AUTHGURU LONGMAI DONGLE\AUTHGURU LM\SERVICENEW\ENCRYPT_DECRYPT.CPP|C:\AUTHGURU LONGMAI DONGLE\AUTHGURU LM\SERVICENEW\HARDDISKID.CPP|C:\AUTHGURU LONGMAI DONGLE\AUTHGURU LM\SERVICENEW\MAC.CPP|C:\AUTHGURU LONGMAI DONGLE\AUTHGURU LM\SERVICENEW\READWRITESECTOR.CPP|C:\AUTHGURU LONGMAI DONGLE\AUTHGURU LM\SERVICENEW\SERVICENEW.CPP
C:\AUTHGURU LONGMAI DONGLE\AUTHGURU LM\SERVICENEW\RELEASE\SERVICENEW.OBJ
C:\AUTHGURU LONGMAI DONGLE\AUTHGURU LM\SERVICENEW\RELEASE\READWRITESECTOR.OBJ
C:\AUTHGURU LONGMAI DONGLE\AUTHGURU LM\SERVICENEW\RELEASE\MAC.OBJ
C:\AUTHGURU LONGMAI DONGLE\AUTHGURU LM\SERVICENEW\RELEASE\HARDDISKID.OBJ
C:\AUTHGURU LONGMAI DONGLE\AUTHGURU LM\SERVICENEW\RELEASE\ENCRYPT_DECRYPT.OBJ
C:\AUTHGURU LONGMAI DONGLE\AUTHGURU LM\SERVICENEW\RELEASE\DIVIDEINFO.OBJ
C:\AUTHGURU LONGMAI DONGLE\AUTHGURU LM\SERVICENEW\RELEASE\DATE_YEAR.OBJ
C:\AUTHGURU LONGMAI DONGLE\AUTHGURU LM\SERVICENEW\RELEASE\AG_LICENSE.OBJ
^C:\AUTHGURU LONGMAI DONGLE\AUTHGURU LM\SERVICENEW\AG_LICENSE.CPP
C:\AUTHGURU LONGMAI DONGLE\AUTHGURU LM\SERVICENEW\RELEASE\VC100.PDB
^C:\AUTHGURU LONGMAI DONGLE\AUTHGURU LM\SERVICENEW\DATE_YEAR.CPP
C:\AUTHGURU LONGMAI DONGLE\AUTHGURU LM\SERVICENEW\RELEASE\VC100.PDB
^C:\AUTHGURU LONGMAI DONGLE\AUTHGURU LM\SERVICENEW\DIVIDEINFO.CPP
C:\AUTHGURU LONGMAI DONGLE\AUTHGURU LM\SERVICENEW\RELEASE\VC100.PDB
^C:\AUTHGURU LONGMAI DONGLE\AUTHGURU LM\SERVICENEW\ENCRYPT_DECRYPT.CPP
C:\AUTHGURU LONGMAI DONGLE\AUTHGURU LM\SERVICENEW\RELEASE\VC100.PDB
^C:\AUTHGURU LONGMAI DONGLE\AUTHGURU LM\SERVICENEW\HARDDISKID.CPP
C:\AUTHGURU LONGMAI DONGLE\AUTHGURU LM\SERVICENEW\RELEASE\VC100.PDB
^C:\AUTHGURU LONGMAI DONGLE\AUTHGURU LM\SERVICENEW\MAC.CPP
C:\AUTHGURU LONGMAI DONGLE\AUTHGURU LM\SERVICENEW\RELEASE\VC100.PDB
^C:\AUTHGURU LONGMAI DONGLE\AUTHGURU LM\SERVICENEW\READWRITESECTOR.CPP
C:\AUTHGURU LONGMAI DONGLE\AUTHGURU LM\SERVICENEW\RELEASE\VC100.PDB
^C:\AUTHGURU LONGMAI DONGLE\AUTHGURU LM\SERVICENEW\SERVICENEW.CPP
C:\AUTHGURU LONGMAI DONGLE\AUTHGURU LM\SERVICENEW\RELEASE\VC100.PDB
