^C:\AUTHGURU LONGMAI DONGLE\AG_CLIENT_64\AG_CLIENT\X64\RELEASE\AG_CLIENT_64.DLL.INTERMEDIATE.MANIFEST
C:\WINDOWS\REGISTRATION\R000000000018.CLB
C:\WINDOWS\MICROSOFT.NET\FRAMEWORK\V2.0.50727\MSCORWKS.DLL
C:\WINDOWS\MICROSOFT.NET\FRAMEWORK\V4.0.30319\CLR.DLL
C:\WINDOWS\SYSWOW64\MT.EXE.CONFIG
C:\AUTHGURU LONGMAI DONGLE\AG_CLIENT_64\AG_CLIENT\X64\RELEASE\AG_CLIENT_64.DLL
