^C:\AUTHGURU LONGMAI DONGLE\AG_CLIENT_64\AG_CLIENT\AG_CLIENT.RC
C:\AUTHGURU LONGMAI DONGLE\AG_CLIENT_64\AG_CLIENT\RESOURCE.H
C:\PROGRAM FILES (X86)\MICROSOFT VISUAL STUDIO 10.0\VC\ATLMFC\INCLUDE\AFXRES.H
C:\PROGRAM FILES (X86)\MICROSOFT VISUAL STUDIO 10.0\VC\ATLMFC\INCLUDE\WINRES.H
C:\PROGRAM FILES (X86)\MICROSOFT SDKS\WINDOWS\V7.0A\INCLUDE\WINRESRC.H
C:\PROGRAM FILES (X86)\MICROSOFT SDKS\WINDOWS\V7.0A\INCLUDE\WINUSER.RH
C:\PROGRAM FILES (X86)\MICROSOFT SDKS\WINDOWS\V7.0A\INCLUDE\COMMCTRL.RH
C:\PROGRAM FILES (X86)\MICROSOFT SDKS\WINDOWS\V7.0A\INCLUDE\DDE.RH
C:\PROGRAM FILES (X86)\MICROSOFT SDKS\WINDOWS\V7.0A\INCLUDE\WINNT.RH
C:\PROGRAM FILES (X86)\MICROSOFT SDKS\WINDOWS\V7.0A\INCLUDE\DLGS.H
C:\PROGRAM FILES (X86)\MICROSOFT SDKS\WINDOWS\V7.0A\INCLUDE\WINVER.H
C:\PROGRAM FILES (X86)\MICROSOFT SDKS\WINDOWS\V7.0A\INCLUDE\SPECSTRINGS.H
C:\PROGRAM FILES (X86)\MICROSOFT SDKS\WINDOWS\V7.0A\INCLUDE\SAL_SUPP.H
C:\PROGRAM FILES (X86)\MICROSOFT SDKS\WINDOWS\V7.0A\INCLUDE\SPECSTRINGS_SUPP.H
C:\PROGRAM FILES (X86)\MICROSOFT VISUAL STUDIO 10.0\VC\INCLUDE\SAL.H
C:\PROGRAM FILES (X86)\MICROSOFT SDKS\WINDOWS\V7.0A\INCLUDE\DRIVERSPECS.H
C:\PROGRAM FILES (X86)\MICROSOFT SDKS\WINDOWS\V7.0A\INCLUDE\SDV_DRIVERSPECS.H
C:\PROGRAM FILES (X86)\MICROSOFT SDKS\WINDOWS\V7.0A\INCLUDE\VERRSRC.H
