^E:\AUTHGURU HL LATEST DONGLE\AUTHGURU LM_INSTALL\AUTHSERVER_INSTALL\STDAFX.CPP
E:\AUTHGURU HL LATEST DONGLE\AUTHGURU LM_INSTALL\AUTHSERVER_INSTALL\DEBUG\AUTHLM_INSTALL.PCH
E:\AUTHGURU HL LATEST DONGLE\AUTHGURU LM_INSTALL\AUTHSERVER_INSTALL\DEBUG\STDAFX.OBJ
E:\AUTHGURU HL LATEST DONGLE\AUTHGURU LM_INSTALL\AUTHSERVER_INSTALL\DEBUG\VC100.PDB
^E:\AUTHGURU HL LATEST DONGLE\AUTHGURU LM_INSTALL\AUTHSERVER_INSTALL\AUTHSERVER_INSTALL.CPP
E:\AUTHGURU HL LATEST DONGLE\AUTHGURU LM_INSTALL\AUTHSERVER_INSTALL\DEBUG\AUTHSERVER_INSTALL.OBJ
E:\AUTHGURU HL LATEST DONGLE\AUTHGURU LM_INSTALL\AUTHSERVER_INSTALL\DEBUG\VC100.PDB
^C:\USERS\BASTION\APPDATA\LOCAL\TEMP\.NETFRAMEWORK,VERSION=V4.0.ASSEMBLYATTRIBUTES.CPP
E:\AUTHGURU HL LATEST DONGLE\AUTHGURU LM_INSTALL\AUTHSERVER_INSTALL\DEBUG\.NETFRAMEWORK,VERSION=V4.0.ASSEMBLYATTRIBUTES.OBJ
E:\AUTHGURU HL LATEST DONGLE\AUTHGURU LM_INSTALL\AUTHSERVER_INSTALL\DEBUG\VC100.PDB
