^E:\AUTHGURU HL LATEST DONGLE\AG_ONLINE_INSTALL\AUTHSERVER_INSTALL\STDAFX.CPP
E:\AUTHGURU HL LATEST DONGLE\AG_ONLINE_INSTALL\AUTHSERVER_INSTALL\DEBUG\AG_ONLINE_INSTALL.PCH
E:\AUTHGURU HL LATEST DONGLE\AG_ONLINE_INSTALL\AUTHSERVER_INSTALL\DEBUG\STDAFX.OBJ
E:\AUTHGURU HL LATEST DONGLE\AG_ONLINE_INSTALL\AUTHSERVER_INSTALL\DEBUG\VC100.PDB
