^C:\AUTHGURU LONGMAI DONGLE\BASIC SDK\AG_CLIENT_64\AG_CLIENT\STDAFX.CPP
/c /Z7 /nologo /W3 /WX- /O2 /Oi /GL /D _AMD64_ /D _WIN64 /D NDEBUG /D _LIB /D _WINDLL /D _MBCS /Gm- /EHsc /MT /GS /Gy /fp:precise /Zc:wchar_t /Zc:forScope /Yc"StdAfx.h" /Fp"x64\Release\AG_CLIENT_64.pch" /Fo"x64\Release\\" /Fd"x64\Release\vc100.pdb" /Gd /TP /errorReport:prompt C:\AUTHGURU LONGMAI DONGLE\BASIC SDK\AG_CLIENT_64\AG_CLIENT\STDAFX.CPP
^C:\AUTHGURU LONGMAI DONGLE\BASIC SDK\AG_CLIENT_64\AG_CLIENT\AG_CLIENT.CPP
/c /Z7 /nologo /W3 /WX- /O2 /Oi /GL /D _AMD64_ /D _WIN64 /D NDEBUG /D _LIB /D _WINDLL /D _MBCS /Gm- /EHsc /MT /GS /Gy /fp:precise /Zc:wchar_t /Zc:forScope /Yu"StdAfx.h" /Fp"x64\Release\AG_CLIENT_64.pch" /Fo"x64\Release\\" /Fd"x64\Release\vc100.pdb" /Gd /TP /errorReport:prompt C:\AUTHGURU LONGMAI DONGLE\BASIC SDK\AG_CLIENT_64\AG_CLIENT\AG_CLIENT.CPP
^C:\AUTHGURU LONGMAI DONGLE\BASIC SDK\AG_CLIENT_64\AG_CLIENT\DATE_YEAR.CPP
/c /Z7 /nologo /W3 /WX- /O2 /Oi /GL /D _AMD64_ /D _WIN64 /D NDEBUG /D _LIB /D _WINDLL /D _MBCS /Gm- /EHsc /MT /GS /Gy /fp:precise /Zc:wchar_t /Zc:forScope /Yu"StdAfx.h" /Fp"x64\Release\AG_CLIENT_64.pch" /Fo"x64\Release\\" /Fd"x64\Release\vc100.pdb" /Gd /TP /errorReport:prompt C:\AUTHGURU LONGMAI DONGLE\BASIC SDK\AG_CLIENT_64\AG_CLIENT\DATE_YEAR.CPP
^C:\AUTHGURU LONGMAI DONGLE\BASIC SDK\AG_CLIENT_64\AG_CLIENT\DIVIDEINFO.CPP
/c /Z7 /nologo /W3 /WX- /O2 /Oi /GL /D _AMD64_ /D _WIN64 /D NDEBUG /D _LIB /D _WINDLL /D _MBCS /Gm- /EHsc /MT /GS /Gy /fp:precise /Zc:wchar_t /Zc:forScope /Yu"StdAfx.h" /Fp"x64\Release\AG_CLIENT_64.pch" /Fo"x64\Release\\" /Fd"x64\Release\vc100.pdb" /Gd /TP /errorReport:prompt C:\AUTHGURU LONGMAI DONGLE\BASIC SDK\AG_CLIENT_64\AG_CLIENT\DIVIDEINFO.CPP
^C:\AUTHGURU LONGMAI DONGLE\BASIC SDK\AG_CLIENT_64\AG_CLIENT\ENCRYPT_DECRYPT.CPP
/c /Z7 /nologo /W3 /WX- /O2 /Oi /GL /D _AMD64_ /D _WIN64 /D NDEBUG /D _LIB /D _WINDLL /D _MBCS /Gm- /EHsc /MT /GS /Gy /fp:precise /Zc:wchar_t /Zc:forScope /Yu"StdAfx.h" /Fp"x64\Release\AG_CLIENT_64.pch" /Fo"x64\Release\\" /Fd"x64\Release\vc100.pdb" /Gd /TP /errorReport:prompt C:\AUTHGURU LONGMAI DONGLE\BASIC SDK\AG_CLIENT_64\AG_CLIENT\ENCRYPT_DECRYPT.CPP
^C:\AUTHGURU LONGMAI DONGLE\BASIC SDK\AG_CLIENT_64\AG_CLIENT\HARDDISKID.CPP
/c /Z7 /nologo /W3 /WX- /O2 /Oi /GL /D _AMD64_ /D _WIN64 /D NDEBUG /D _LIB /D _WINDLL /D _MBCS /Gm- /EHsc /MT /GS /Gy /fp:precise /Zc:wchar_t /Zc:forScope /Yu"StdAfx.h" /Fp"x64\Release\AG_CLIENT_64.pch" /Fo"x64\Release\\" /Fd"x64\Release\vc100.pdb" /Gd /TP /errorReport:prompt C:\AUTHGURU LONGMAI DONGLE\BASIC SDK\AG_CLIENT_64\AG_CLIENT\HARDDISKID.CPP
^C:\AUTHGURU LONGMAI DONGLE\BASIC SDK\AG_CLIENT_64\AG_CLIENT\MAC.CPP
/c /Z7 /nologo /W3 /WX- /O2 /Oi /GL /D _AMD64_ /D _WIN64 /D NDEBUG /D _LIB /D _WINDLL /D _MBCS /Gm- /EHsc /MT /GS /Gy /fp:precise /Zc:wchar_t /Zc:forScope /Yu"StdAfx.h" /Fp"x64\Release\AG_CLIENT_64.pch" /Fo"x64\Release\\" /Fd"x64\Release\vc100.pdb" /Gd /TP /errorReport:prompt C:\AUTHGURU LONGMAI DONGLE\BASIC SDK\AG_CLIENT_64\AG_CLIENT\MAC.CPP
^C:\AUTHGURU LONGMAI DONGLE\BASIC SDK\AG_CLIENT_64\AG_CLIENT\READWRITESECTOR.CPP
/c /Z7 /nologo /W3 /WX- /O2 /Oi /GL /D _AMD64_ /D _WIN64 /D NDEBUG /D _LIB /D _WINDLL /D _MBCS /Gm- /EHsc /MT /GS /Gy /fp:precise /Zc:wchar_t /Zc:forScope /Yu"StdAfx.h" /Fp"x64\Release\AG_CLIENT_64.pch" /Fo"x64\Release\\" /Fd"x64\Release\vc100.pdb" /Gd /TP /errorReport:prompt C:\AUTHGURU LONGMAI DONGLE\BASIC SDK\AG_CLIENT_64\AG_CLIENT\READWRITESECTOR.CPP
