^E:\ASPNET_DEMO\AUTHTOKEN\AUTHTOKEN\AUTHTOKEN\RELEASE\AUTHTOKEN.OBJ|E:\ASPNET_DEMO\AUTHTOKEN\AUTHTOKEN\AUTHTOKEN\RELEASE\AUTHTOKEN.RES|E:\ASPNET_DEMO\AUTHTOKEN\AUTHTOKEN\AUTHTOKEN\RELEASE\AUTHTOKENCTRL.OBJ|E:\ASPNET_DEMO\AUTHTOKEN\AUTHTOKEN\AUTHTOKEN\RELEASE\AUTHTOKENPROPPAGE.OBJ|E:\ASPNET_DEMO\AUTHTOKEN\AUTHTOKEN\AUTHTOKEN\RELEASE\MAINDIALOG.OBJ|E:\ASPNET_DEMO\AUTHTOKEN\AUTHTOKEN\AUTHTOKEN\RELEASE\PICTUREEX.OBJ|E:\ASPNET_DEMO\AUTHTOKEN\AUTHTOKEN\AUTHTOKEN\RELEASE\STDAFX.OBJ
E:\ASPNET_DEMO\AUTHTOKEN\AUTHTOKEN\AUTHTOKEN\RELEASE\AUTHTOKEN.OCX
E:\ASPNET_DEMO\AUTHTOKEN\AUTHTOKEN\AUTHTOKEN\RELEASE\AUTHTOKEN.DLL.INTERMEDIATE.MANIFEST
E:\ASPNET_DEMO\AUTHTOKEN\AUTHTOKEN\AUTHTOKEN\RELEASE\AUTHTOKEN.PDB
