^E:\ASPNET_DEMO\AUTHTOKEN\AUTHTOKEN\AUTHTOKEN\AUTHTOKEN.IDL
E:\ASPNET_DEMO\AUTHTOKEN\AUTHTOKEN\AUTHTOKEN\RELEASE\MYACTIVEX.TLB
E:\ASPNET_DEMO\AUTHTOKEN\AUTHTOKEN\AUTHTOKEN\AUTHTOKEN_I.C
E:\ASPNET_DEMO\AUTHTOKEN\AUTHTOKEN\AUTHTOKEN\AUTHTOKENIDL.H
