^E:\AUTHGURU HL LATEST DONGLE\AG_ONLINE\SERVICENEW\AG_ONLINE.RC
/l"0x0409" /nologo /fo"Debug\AG_ONLINE.res" AG_ONLINE.rc /l"0x0409" /nologo /fo"Debug\AG_ONLINE.res" E:\AUTHGURU HL LATEST DONGLE\AG_ONLINE\SERVICENEW\AG_ONLINE.RC
^E:\AUTHGURU HL LATEST DONGLE\AG_ONLINE\SERVICENEW\DEBUG\AG_ONLINE_MANIFEST.RC
/nologo /fo"Debug\AG_ONLINE.exe.embed.manifest.res" Debug\AG_ONLINE_manifest.rc /nologo /fo"Debug\AG_ONLINE.exe.embed.manifest.res" E:\AUTHGURU HL LATEST DONGLE\AG_ONLINE\SERVICENEW\DEBUG\AG_ONLINE_MANIFEST.RC
