﻿Build started 3/12/2014 4:30:29 PM.
     1>Project "E:\testing\Bastion64.dll\dll file\dll file.vcxproj" on node 2 (rebuild target(s)).
     1>InitializeBuildStatus:
         Creating "Release\dll file.unsuccessfulbuild" because "AlwaysCreate" was specified.
       ClCompile:
         C:\Program Files (x86)\Microsoft Visual Studio 10.0\VC\bin\x86_amd64\CL.exe /c /Zi /nologo /W3 /WX- /O2 /GL /D WIN32 /D NDEBUG /D _WINDOWS /D _USRDLL /D DLLFILE_EXPORTS /D _WINDLL /D _MBCS /Gm- /EHsc /MT /GS /fp:precise /Zc:wchar_t /Zc:forScope /Yc"StdAfx.h" /Fp"Release\Bastion64.pch" /Fo"Release\\" /Fd"Release\vc100.pdb" /Gd /TP /errorReport:prompt stdafx.cpp
         stdafx.cpp
         C:\Program Files (x86)\Microsoft Visual Studio 10.0\VC\bin\x86_amd64\CL.exe /c /Zi /nologo /W3 /WX- /O2 /GL /D WIN32 /D NDEBUG /D _WINDOWS /D _USRDLL /D DLLFILE_EXPORTS /D _WINDLL /D _MBCS /Gm- /EHsc /MT /GS /fp:precise /Zc:wchar_t /Zc:forScope /Yu"StdAfx.h" /Fp"Release\Bastion64.pch" /Fo"Release\\" /Fd"Release\vc100.pdb" /Gd /TP /errorReport:prompt "dll file.cpp"
         dll file.cpp
     1>e:\testing\bastion64.dll\dll file\AG_Client.h(39): warning C4190: 'AG_Error' has C-linkage specified, but returns UDT 'std::basic_string<_Elem,_Traits,_Ax>' which is incompatible with C
                 with
                 [
                     _Elem=char,
                     _Traits=std::char_traits<char>,
                     _Ax=std::allocator<char>
                 ]
       ResourceCompile:
         C:\Program Files (x86)\Microsoft SDKs\Windows\v7.0A\bin\rc.exe /l"0x0409" /nologo /fo"Release\dll file.res" "dll file.rc" 
       Link:
         C:\Program Files (x86)\Microsoft Visual Studio 10.0\VC\bin\x86_amd64\link.exe /ERRORREPORT:PROMPT /OUT:"E:\testing\Bastion64.dll\dll file\Release\Bastion64.dll" /INCREMENTAL:NO /NOLOGO AG_CLIENT_64.lib kernel32.lib user32.lib gdi32.lib winspool.lib comdlg32.lib advapi32.lib shell32.lib ole32.lib oleaut32.lib uuid.lib odbc32.lib odbccp32.lib netapi32.lib wsock32.lib rpcrt4.lib kernel32.lib user32.lib gdi32.lib winspool.lib comdlg32.lib advapi32.lib shell32.lib ole32.lib oleaut32.lib uuid.lib odbc32.lib odbccp32.lib /DEF:"mod.def" /MANIFEST /ManifestFile:"Release\Bastion64.dll.intermediate.manifest" /MANIFESTUAC:"level='requireAdministrator' uiAccess='false'" /DEBUG /PDB:"E:\testing\Bastion64.dll\dll file\Release\Bastion64.pdb" /SUBSYSTEM:WINDOWS /OPT:REF /OPT:ICF /LTCG /TLBID:1 /DYNAMICBASE /NXCOMPAT /IMPLIB:"E:\testing\Bastion64.dll\dll file\Release\Bastion64.lib" /MACHINE:X64 /DLL "Release\dll file.res"
         "Release\dll file.obj"
         Release\stdafx.obj
     1>dll file.obj : warning LNK4197: export 'BeforeHandlers' specified multiple times; using first specification
            Creating library E:\testing\Bastion64.dll\dll file\Release\Bastion64.lib and object E:\testing\Bastion64.dll\dll file\Release\Bastion64.exp
         Generating code
         Finished generating code
         dll file.vcxproj -> E:\testing\Bastion64.dll\dll file\Release\Bastion64.dll
       Manifest:
         C:\Program Files (x86)\Microsoft SDKs\Windows\v7.0A\bin\mt.exe /nologo /verbose /outputresource:"E:\testing\Bastion64.dll\dll file\Release\Bastion64.dll;#2" /manifest Release\Bastion64.dll.intermediate.manifest
       PostBuildEvent:
         copy.bat
         :VCEnd
         The system cannot find the path specified.
                 0 file(s) copied.
     1>C:\Program Files (x86)\MSBuild\Microsoft.Cpp\v4.0\Microsoft.CppCommon.targets(113,5): error MSB3073: The command "copy.bat
C:\Program Files (x86)\MSBuild\Microsoft.Cpp\v4.0\Microsoft.CppCommon.targets(113,5): error MSB3073: :VCEnd" exited with code 1.
     1>Done Building Project "E:\testing\Bastion64.dll\dll file\dll file.vcxproj" (rebuild target(s)) -- FAILED.

Build FAILED.

Time Elapsed 00:00:02.53
