E:\AUTHGURU HL\AES\AG_CLIENT\AG_CLIENT\RELEASE\AG_CLIENT.OBJ
E:\AUTHGURU HL\AES\AG_CLIENT\AG_CLIENT\RELEASE\AG_CLIENT.RES
E:\AUTHGURU HL\AES\AG_CLIENT\AG_CLIENT\RELEASE\AG_CLIENT_AES.DLL
E:\AUTHGURU HL\AES\AG_CLIENT\AG_CLIENT\RELEASE\AG_CLIENT_AES.DLL.INTERMEDIATE.MANIFEST
E:\AuthGuru HL\AES\AG_CLIENT\AG_CLIENT\Release\AG_CLIENT_AES.exp
E:\AuthGuru HL\AES\AG_CLIENT\AG_CLIENT\Release\AG_CLIENT_AES.lib
E:\AUTHGURU HL\AES\AG_CLIENT\AG_CLIENT\RELEASE\AG_CLIENT_AES.PCH
E:\AUTHGURU HL\AES\AG_CLIENT\AG_CLIENT\RELEASE\AG_CLIENT_AES.PDB
E:\AuthGuru HL\AES\AG_CLIENT\AG_CLIENT\Release\AG_CLIENT_AES.write.1.tlog
E:\AuthGuru HL\AES\AG_CLIENT\AG_CLIENT\Release\cl.command.1.tlog
E:\AuthGuru HL\AES\AG_CLIENT\AG_CLIENT\Release\CL.read.1.tlog
E:\AuthGuru HL\AES\AG_CLIENT\AG_CLIENT\Release\CL.write.1.tlog
E:\AUTHGURU HL\AES\AG_CLIENT\AG_CLIENT\RELEASE\DATE_YEAR.OBJ
E:\AUTHGURU HL\AES\AG_CLIENT\AG_CLIENT\RELEASE\DIVIDEINFO.OBJ
E:\AUTHGURU HL\AES\AG_CLIENT\AG_CLIENT\RELEASE\ENCRYPT_DECRYPT.OBJ
E:\AUTHGURU HL\AES\AG_CLIENT\AG_CLIENT\RELEASE\HARDDISKID.OBJ
E:\AuthGuru HL\AES\AG_CLIENT\AG_CLIENT\Release\link.command.1.tlog
E:\AuthGuru HL\AES\AG_CLIENT\AG_CLIENT\Release\link.read.1.tlog
E:\AuthGuru HL\AES\AG_CLIENT\AG_CLIENT\Release\link.write.1.tlog
E:\AuthGuru HL\AES\AG_CLIENT\AG_CLIENT\Release\link-cvtres.read.1.tlog
E:\AuthGuru HL\AES\AG_CLIENT\AG_CLIENT\Release\link-cvtres.write.1.tlog
E:\AUTHGURU HL\AES\AG_CLIENT\AG_CLIENT\RELEASE\MAC.OBJ
E:\AuthGuru HL\AES\AG_CLIENT\AG_CLIENT\Release\mt.command.1.tlog
E:\AuthGuru HL\AES\AG_CLIENT\AG_CLIENT\Release\mt.read.1.tlog
E:\AuthGuru HL\AES\AG_CLIENT\AG_CLIENT\Release\mt.write.1.tlog
E:\AuthGuru HL\AES\AG_CLIENT\AG_CLIENT\Release\rc.command.1.tlog
E:\AuthGuru HL\AES\AG_CLIENT\AG_CLIENT\Release\rc.read.1.tlog
E:\AuthGuru HL\AES\AG_CLIENT\AG_CLIENT\Release\rc.write.1.tlog
E:\AUTHGURU HL\AES\AG_CLIENT\AG_CLIENT\RELEASE\READWRITESECTOR.OBJ
E:\AUTHGURU HL\AES\AG_CLIENT\AG_CLIENT\RELEASE\STDAFX.OBJ
