^E:\AUTHGURU HL LATEST DONGLE\AG_AUTHENTICATOR\AG_AUTHENTICATOR\AG_AUTHENTICATOR.RC
/D _DEBUG /l"0x0409" /IDebug\ /nologo /fo"Debug\AG_AUTHENTICATOR.res" AG_AUTHENTICATOR.rc /D _DEBUG /l"0x0409" /IDebug\ /nologo /fo"Debug\AG_AUTHENTICATOR.res" E:\AUTHGURU HL LATEST DONGLE\AG_AUTHENTICATOR\AG_AUTHENTICATOR\AG_AUTHENTICATOR.RC
^E:\AUTHGURU HL LATEST DONGLE\AG_AUTHENTICATOR\AG_AUTHENTICATOR\DEBUG\AG_AUTHENTICATOR_MANIFEST.RC
/nologo /fo"Debug\AG_AUTHENTICATOR.exe.embed.manifest.res" Debug\AG_AUTHENTICATOR_manifest.rc /nologo /fo"Debug\AG_AUTHENTICATOR.exe.embed.manifest.res" E:\AUTHGURU HL LATEST DONGLE\AG_AUTHENTICATOR\AG_AUTHENTICATOR\DEBUG\AG_AUTHENTICATOR_MANIFEST.RC
