^C:\AUTHGURU LONGMAI DONGLE\AUTHGURU_NET\AUTHGURU_NET\RELEASE\.NETFRAMEWORK,VERSION=V4.0.ASSEMBLYATTRIBUTES.OBJ|C:\AUTHGURU LONGMAI DONGLE\AUTHGURU_NET\AUTHGURU_NET\RELEASE\AUTHGURU_NET.OBJ|C:\AUTHGURU LONGMAI DONGLE\AUTHGURU_NET\AUTHGURU_NET\RELEASE\AUTHGURU_NET.RES|C:\AUTHGURU LONGMAI DONGLE\AUTHGURU_NET\AUTHGURU_NET\RELEASE\ENCRYPT_DECRYPT.OBJ|C:\AUTHGURU LONGMAI DONGLE\AUTHGURU_NET\AUTHGURU_NET\RELEASE\STDAFX.OBJ
C:\AUTHGURU LONGMAI DONGLE\AUTHGURU_NET\AUTHGURU_NET\RELEASE\AUTHGURU_NET.DLL
C:\AUTHGURU LONGMAI DONGLE\AUTHGURU_NET\AUTHGURU_NET\RELEASE\AUTHGURU_NET.DLL.INTERMEDIATE.MANIFEST
C:\AUTHGURU LONGMAI DONGLE\AUTHGURU_NET\AUTHGURU_NET\RELEASE\AUTHGURU_NET.PDB
