^C:\AUTHGURU LONGMAI DONGLE\BASIC SDK\AuthGuru_net\AuthGuru_net\AuthGuru_net.vcxproj
C:\AUTHGURU LONGMAI DONGLE\BASIC SDK\AuthGuru_net\AuthGuru_net\Release\AuthGuru_net.lib
C:\AUTHGURU LONGMAI DONGLE\BASIC SDK\AuthGuru_net\AuthGuru_net\Release\AuthGuru_net.exp
^C:\AUTHGURU LONGMAI DONGLE\BASIC SDK\AuthGuru_net\AuthGuru_net\AuthGuru_net.vcxproj
C:\AUTHGURU LONGMAI DONGLE\BASIC SDK\AuthGuru_net\AuthGuru_net\Release\AuthGuru_net.lib
C:\AUTHGURU LONGMAI DONGLE\BASIC SDK\AuthGuru_net\AuthGuru_net\Release\AuthGuru_net.exp
^C:\AUTHGURU LONGMAI DONGLE\BASIC SDK\AuthGuru_net\AuthGuru_net\AuthGuru_net.vcxproj
C:\AUTHGURU LONGMAI DONGLE\BASIC SDK\AuthGuru_net\AuthGuru_net\Release\AuthGuru_net.lib
C:\AUTHGURU LONGMAI DONGLE\BASIC SDK\AuthGuru_net\AuthGuru_net\Release\AuthGuru_net.exp
