^C:\AUTHGURU LONGMAI DONGLE\BASTION.DLL\DLL FILE\RELEASE\BASTION.DLL.INTERMEDIATE.MANIFEST
/nologo /verbose /outputresource:"C:\AUTHGURU LONGMAI DONGLE\Bastion.dll\dll file\Release\Bastion.dll;#2" /manifest Release\Bastion.dll.intermediate.manifest
^C:\AUTHGURU LONGMAI DONGLE\BASIC SDK\BASTION.DLL\DLL FILE\RELEASE\BASTION.DLL.INTERMEDIATE.MANIFEST
/nologo /verbose /outputresource:"C:\AUTHGURU LONGMAI DONGLE\BASIC SDK\Bastion.dll\dll file\Release\Bastion.dll;#2" /manifest Release\Bastion.dll.intermediate.manifest
