^C:\AUTHGURU LONGMAI DONGLE\2 LICENSES ONLY\BASTION64.DLL\DLL FILE\STDAFX.CPP
/c /Zi /nologo /W3 /WX- /O2 /GL /D WIN32 /D NDEBUG /D _WINDOWS /D _USRDLL /D DLLFILE_EXPORTS /D _WINDLL /D _MBCS /Gm- /EHsc /MT /GS /fp:precise /Zc:wchar_t /Zc:forScope /Yc"StdAfx.h" /Fp"Release\Bastion64.pch" /Fo"Release\\" /Fd"Release\vc100.pdb" /Gd /TP /errorReport:prompt C:\AUTHGURU LONGMAI DONGLE\2 LICENSES ONLY\BASTION64.DLL\DLL FILE\STDAFX.CPP
^C:\AUTHGURU LONGMAI DONGLE\2 LICENSES ONLY\BASTION64.DLL\DLL FILE\DLL FILE.CPP
/c /Zi /nologo /W3 /WX- /O2 /GL /D WIN32 /D NDEBUG /D _WINDOWS /D _USRDLL /D DLLFILE_EXPORTS /D _WINDLL /D _MBCS /Gm- /EHsc /MT /GS /fp:precise /Zc:wchar_t /Zc:forScope /Yu"StdAfx.h" /Fp"Release\Bastion64.pch" /Fo"Release\\" /Fd"Release\vc100.pdb" /Gd /TP /errorReport:prompt C:\AUTHGURU LONGMAI DONGLE\2 LICENSES ONLY\BASTION64.DLL\DLL FILE\DLL FILE.CPP
