^C:\AUTHGURU LONGMAI DONGLE\2 LICENSES ONLY\BASTION64.DLL\DLL FILE\RELEASE\DLL FILE.OBJ|C:\AUTHGURU LONGMAI DONGLE\2 LICENSES ONLY\BASTION64.DLL\DLL FILE\RELEASE\DLL FILE.RES|C:\AUTHGURU LONGMAI DONGLE\2 LICENSES ONLY\BASTION64.DLL\DLL FILE\RELEASE\STDAFX.OBJ
C:\AUTHGURU LONGMAI DONGLE\2 LICENSES ONLY\BASTION64.DLL\DLL FILE\RELEASE\BASTION64.DLL
C:\AUTHGURU LONGMAI DONGLE\2 LICENSES ONLY\BASTION64.DLL\DLL FILE\RELEASE\BASTION64.DLL.INTERMEDIATE.MANIFEST
C:\AUTHGURU LONGMAI DONGLE\2 LICENSES ONLY\BASTION64.DLL\DLL FILE\RELEASE\BASTION64.PDB
