^C:\AUTHGURU LONGMAI DONGLE\2 LICENSES ONLY\BASTION64.DLL\DLL FILE\RELEASE\DLL FILE.OBJ|C:\AUTHGURU LONGMAI DONGLE\2 LICENSES ONLY\BASTION64.DLL\DLL FILE\RELEASE\DLL FILE.RES|C:\AUTHGURU LONGMAI DONGLE\2 LICENSES ONLY\BASTION64.DLL\DLL FILE\RELEASE\STDAFX.OBJ
/ERRORREPORT:PROMPT /OUT:"C:\AUTHGURU LONGMAI DONGLE\2 licenses only\Bastion64.dll\dll file\Release\Bastion64.dll" /INCREMENTAL:NO /NOLOGO AG_CLIENT_64.lib kernel32.lib user32.lib gdi32.lib winspool.lib comdlg32.lib advapi32.lib shell32.lib ole32.lib oleaut32.lib uuid.lib odbc32.lib odbccp32.lib netapi32.lib wsock32.lib rpcrt4.lib kernel32.lib user32.lib gdi32.lib winspool.lib comdlg32.lib advapi32.lib shell32.lib ole32.lib oleaut32.lib uuid.lib odbc32.lib odbccp32.lib /DEF:"mod.def" /MANIFEST /ManifestFile:"Release\Bastion64.dll.intermediate.manifest" /MANIFESTUAC:"level='requireAdministrator' uiAccess='false'" /DEBUG /PDB:"C:\AUTHGURU LONGMAI DONGLE\2 licenses only\Bastion64.dll\dll file\Release\Bastion64.pdb" /SUBSYSTEM:WINDOWS /OPT:REF /OPT:ICF /LTCG /TLBID:1 /DYNAMICBASE /NXCOMPAT /IMPLIB:"C:\AUTHGURU LONGMAI DONGLE\2 licenses only\Bastion64.dll\dll file\Release\Bastion64.lib" /MACHINE:X64 /DLL "Release\dll file.res"
"Release\dll file.obj"
Release\stdafx.obj
