^E:\DELPHI\AUTHGURU\AG_CLIENT\AG_CLIENT\STDAFX.CPP
/c /Z7 /nologo /W3 /WX- /O2 /Oi /Oy- /GL /D WIN32 /D NDEBUG /D _LIB /D _MBCS /Gm- /EHsc /MT /GS /Gy /fp:precise /Zc:wchar_t /Zc:forScope /Yc"StdAfx.h" /Fp"Release\AG_CLIENT.pch" /Fo"Release\\" /Fd"Release\vc100.pdb" /Gd /TP /analyze- /errorReport:prompt E:\DELPHI\AUTHGURU\AG_CLIENT\AG_CLIENT\STDAFX.CPP
^E:\DELPHI\AUTHGURU\AG_CLIENT\AG_CLIENT\AG_CLIENT.CPP
/c /Z7 /nologo /W3 /WX- /O2 /Oi /Oy- /GL /D WIN32 /D NDEBUG /D _LIB /D _MBCS /Gm- /EHsc /MT /GS /Gy /fp:precise /Zc:wchar_t /Zc:forScope /Yu"StdAfx.h" /Fp"Release\AG_CLIENT.pch" /Fo"Release\\" /Fd"Release\vc100.pdb" /Gd /TP /analyze- /errorReport:prompt E:\DELPHI\AUTHGURU\AG_CLIENT\AG_CLIENT\AG_CLIENT.CPP
^E:\DELPHI\AUTHGURU\AG_CLIENT\AG_CLIENT\DATE_YEAR.CPP
/c /Z7 /nologo /W3 /WX- /O2 /Oi /Oy- /GL /D WIN32 /D NDEBUG /D _LIB /D _MBCS /Gm- /EHsc /MT /GS /Gy /fp:precise /Zc:wchar_t /Zc:forScope /Yu"StdAfx.h" /Fp"Release\AG_CLIENT.pch" /Fo"Release\\" /Fd"Release\vc100.pdb" /Gd /TP /analyze- /errorReport:prompt E:\DELPHI\AUTHGURU\AG_CLIENT\AG_CLIENT\DATE_YEAR.CPP
^E:\DELPHI\AUTHGURU\AG_CLIENT\AG_CLIENT\DIVIDEINFO.CPP
/c /Z7 /nologo /W3 /WX- /O2 /Oi /Oy- /GL /D WIN32 /D NDEBUG /D _LIB /D _MBCS /Gm- /EHsc /MT /GS /Gy /fp:precise /Zc:wchar_t /Zc:forScope /Yu"StdAfx.h" /Fp"Release\AG_CLIENT.pch" /Fo"Release\\" /Fd"Release\vc100.pdb" /Gd /TP /analyze- /errorReport:prompt E:\DELPHI\AUTHGURU\AG_CLIENT\AG_CLIENT\DIVIDEINFO.CPP
^E:\DELPHI\AUTHGURU\AG_CLIENT\AG_CLIENT\ENCRYPT_DECRYPT.CPP
/c /Z7 /nologo /W3 /WX- /O2 /Oi /Oy- /GL /D WIN32 /D NDEBUG /D _LIB /D _MBCS /Gm- /EHsc /MT /GS /Gy /fp:precise /Zc:wchar_t /Zc:forScope /Yu"StdAfx.h" /Fp"Release\AG_CLIENT.pch" /Fo"Release\\" /Fd"Release\vc100.pdb" /Gd /TP /analyze- /errorReport:prompt E:\DELPHI\AUTHGURU\AG_CLIENT\AG_CLIENT\ENCRYPT_DECRYPT.CPP
^E:\DELPHI\AUTHGURU\AG_CLIENT\AG_CLIENT\HARDDISKID.CPP
/c /Z7 /nologo /W3 /WX- /O2 /Oi /Oy- /GL /D WIN32 /D NDEBUG /D _LIB /D _MBCS /Gm- /EHsc /MT /GS /Gy /fp:precise /Zc:wchar_t /Zc:forScope /Yu"StdAfx.h" /Fp"Release\AG_CLIENT.pch" /Fo"Release\\" /Fd"Release\vc100.pdb" /Gd /TP /analyze- /errorReport:prompt E:\DELPHI\AUTHGURU\AG_CLIENT\AG_CLIENT\HARDDISKID.CPP
^E:\DELPHI\AUTHGURU\AG_CLIENT\AG_CLIENT\MAC.CPP
/c /Z7 /nologo /W3 /WX- /O2 /Oi /Oy- /GL /D WIN32 /D NDEBUG /D _LIB /D _MBCS /Gm- /EHsc /MT /GS /Gy /fp:precise /Zc:wchar_t /Zc:forScope /Yu"StdAfx.h" /Fp"Release\AG_CLIENT.pch" /Fo"Release\\" /Fd"Release\vc100.pdb" /Gd /TP /analyze- /errorReport:prompt E:\DELPHI\AUTHGURU\AG_CLIENT\AG_CLIENT\MAC.CPP
^E:\DELPHI\AUTHGURU\AG_CLIENT\AG_CLIENT\READWRITESECTOR.CPP
/c /Z7 /nologo /W3 /WX- /O2 /Oi /Oy- /GL /D WIN32 /D NDEBUG /D _LIB /D _MBCS /Gm- /EHsc /MT /GS /Gy /fp:precise /Zc:wchar_t /Zc:forScope /Yu"StdAfx.h" /Fp"Release\AG_CLIENT.pch" /Fo"Release\\" /Fd"Release\vc100.pdb" /Gd /TP /analyze- /errorReport:prompt E:\DELPHI\AUTHGURU\AG_CLIENT\AG_CLIENT\READWRITESECTOR.CPP
