^E:\AUTHGURU HL LATEST DONGLE\BASTION.DLL\DLL FILE\STDAFX.CPP
E:\AUTHGURU HL LATEST DONGLE\BASTION.DLL\DLL FILE\DEBUG\BULWARK.PCH
E:\AUTHGURU HL LATEST DONGLE\BASTION.DLL\DLL FILE\DEBUG\STDAFX.OBJ
E:\AUTHGURU HL LATEST DONGLE\BASTION.DLL\DLL FILE\DEBUG\VC100.PDB
^E:\AUTHGURU HL LATEST DONGLE\BASTION.DLL\DLL FILE\DLL FILE.CPP
E:\AUTHGURU HL LATEST DONGLE\BASTION.DLL\DLL FILE\DEBUG\VC100.PDB
