﻿Build started 5/7/2015 2:23:35 PM.
     1>Project "E:\AUTHGURU HL LATEST DONGLE\AuthGuru_net\AuthGuru_net\AuthGuru_net.vcxproj" on node 5 (rebuild target(s)).
     1>_PrepareForClean:
         Deleting file "Debug\AuthGuru_net.lastbuildstate".
       InitializeBuildStatus:
         Touching "Debug\AuthGuru_net.unsuccessfulbuild".
       GenerateTargetFrameworkMonikerAttribute:
       Skipping target "GenerateTargetFrameworkMonikerAttribute" because all output files are up-to-date with respect to the input files.
       ClCompile:
         C:\Program Files (x86)\Microsoft Visual Studio 10.0\VC\bin\CL.exe /c /AI"C:\Program Files (x86)\Reference Assemblies\Microsoft\Framework\.NETFramework\v4.0" /Zi /clr /nologo /W3 /WX- /Od /Oy- /D WIN32 /D _DEBUG /D _WINDOWS /D _USRDLL /D AUTHGURU_NET_EXPORTS /D _WINDLL /D _UNICODE /D UNICODE /Gm- /EHa /MDd /GS /fp:precise /Zc:wchar_t /Zc:forScope /Yc"StdAfx.h" /Fp"Debug\AuthGuru_net.pch" /Fo"Debug\\" /Fd"Debug\vc100.pdb" /TP /FU"C:\Program Files (x86)\Reference Assemblies\Microsoft\Framework\.NETFramework\v4.0\System.Core.dll" /analyze- /errorReport:prompt stdafx.cpp /clr:nostdlib 
         stdafx.cpp
         C:\Program Files (x86)\Microsoft Visual Studio 10.0\VC\bin\CL.exe /c /AI"C:\Program Files (x86)\Reference Assemblies\Microsoft\Framework\.NETFramework\v4.0" /Zi /clr /nologo /W3 /WX- /Od /Oy- /D WIN32 /D _DEBUG /D _WINDOWS /D _USRDLL /D AUTHGURU_NET_EXPORTS /D _WINDLL /D _UNICODE /D UNICODE /Gm- /EHa /MDd /GS /fp:precise /Zc:wchar_t /Zc:forScope /Yu"StdAfx.h" /Fp"Debug\AuthGuru_net.pch" /Fo"Debug\\" /Fd"Debug\vc100.pdb" /TP /FU"C:\Program Files (x86)\Reference Assemblies\Microsoft\Framework\.NETFramework\v4.0\System.Core.dll" /analyze- /errorReport:prompt AuthGuru_net.cpp Encrypt_decrypt.cpp /clr:nostdlib 
         AuthGuru_net.cpp
     1>e:\authguru hl latest dongle\authguru_net\authguru_net\AG_Client.h(39): warning C4190: 'AG_Error' has C-linkage specified, but returns UDT 'std::basic_string<_Elem,_Traits,_Ax>' which is incompatible with C
                 with
                 [
                     _Elem=char,
                     _Traits=std::char_traits<char>,
                     _Ax=std::allocator<char>
                 ]
     1>e:\authguru hl latest dongle\authguru_net\authguru_net\Stringobf.h(15): warning C4996: 'strcpy': This function or variable may be unsafe. Consider using strcpy_s instead. To disable deprecation, use _CRT_SECURE_NO_WARNINGS. See online help for details.
                 C:\Program Files (x86)\Microsoft Visual Studio 10.0\VC\include\string.h(105) : see declaration of 'strcpy'
     1>AuthGuru_net.cpp(30): error C2664: 'CreateFileW' : cannot convert parameter 1 from 'const char *' to 'LPCWSTR'
                 Types pointed to are unrelated; conversion requires reinterpret_cast, C-style cast or function-style cast
     1>AuthGuru_net.cpp(45): error C2664: 'CreateFileW' : cannot convert parameter 1 from 'const char *' to 'LPCWSTR'
                 Types pointed to are unrelated; conversion requires reinterpret_cast, C-style cast or function-style cast
     1>AuthGuru_net.cpp(127): error C2664: 'CreateFileW' : cannot convert parameter 1 from 'char *' to 'LPCWSTR'
                 Types pointed to are unrelated; conversion requires reinterpret_cast, C-style cast or function-style cast
     1>AuthGuru_net.cpp(142): error C2664: 'CreateFileW' : cannot convert parameter 1 from 'char *' to 'LPCWSTR'
                 Types pointed to are unrelated; conversion requires reinterpret_cast, C-style cast or function-style cast
         Encrypt_decrypt.cpp
     1>Encrypt_decrypt.cpp(132): error C2664: 'MessageBox' : cannot convert parameter 2 from 'const char [16]' to 'LPCTSTR'
                 Types pointed to are unrelated; conversion requires reinterpret_cast, C-style cast or function-style cast
     1>Encrypt_decrypt.cpp(218): error C2664: 'MessageBox' : cannot convert parameter 2 from 'const char [16]' to 'LPCTSTR'
                 Types pointed to are unrelated; conversion requires reinterpret_cast, C-style cast or function-style cast
     1>Encrypt_decrypt.cpp(349): warning C4018: '<' : signed/unsigned mismatch
         Generating Code...
     1>Done Building Project "E:\AUTHGURU HL LATEST DONGLE\AuthGuru_net\AuthGuru_net\AuthGuru_net.vcxproj" (rebuild target(s)) -- FAILED.

Build FAILED.

Time Elapsed 00:00:12.61
