^C:\AUTHGURU LONGMAI DONGLE\BASIC SDK\AG_QUICKPROTECT\AG_QUICKPROTECT\RELEASE\AG_QUICKPROTECT.EXE.INTERMEDIATE.MANIFEST|C:\PROGRAM FILES (X86)\MICROSOFT VISUAL STUDIO 10.0\VC\INCLUDE\MANIFEST\DPIAWARE.MANIFEST
C:\PROGRAM FILES (X86)\MICROSOFT VISUAL STUDIO 10.0\VC\INCLUDE\MANIFEST\DPIAWARE.MANIFEST
C:\WINDOWS\REGISTRATION\R000000000018.CLB
C:\WINDOWS\MICROSOFT.NET\FRAMEWORK\V2.0.50727\MSCORWKS.DLL
C:\WINDOWS\MICROSOFT.NET\FRAMEWORK\V4.0.30319\CLR.DLL
C:\WINDOWS\SYSWOW64\MT.EXE.CONFIG
C:\AUTHGURU LONGMAI DONGLE\BASIC SDK\AG_QUICKPROTECT\AG_QUICKPROTECT\RELEASE\AG_QUICKPROTECT.EXE
