^E:\AUTHGURU HL LATEST DONGLE\AUTHTOKENSERVER\AUTHTOKENSERVER\AUTHTOKENSERVER.IDL
E:\AUTHGURU HL LATEST DONGLE\AUTHTOKENSERVER\AUTHTOKENSERVER\SIMPLEACTIVEX.TLB
E:\AUTHGURU HL LATEST DONGLE\AUTHTOKENSERVER\AUTHTOKENSERVER\AUTHTOKENSERVER_P.C
E:\AUTHGURU HL LATEST DONGLE\AUTHTOKENSERVER\AUTHTOKENSERVER\SIMPLEACTIVEX_I.C
E:\AUTHGURU HL LATEST DONGLE\AUTHTOKENSERVER\AUTHTOKENSERVER\SIMPLEACTIVEX.H
