^E:\AUTHGURU HL LATEST DONGLE\AG_API_DEMO\AG_API_DEMO\STDAFX.CPP
/c /ZI /nologo /W3 /WX- /Od /Oy- /D WIN32 /D _WINDOWS /D _DEBUG /D _MBCS /Gm /EHsc /RTC1 /MTd /GS /fp:precise /Zc:wchar_t /Zc:forScope /Yc"StdAfx.h" /Fp"Debug\AG_API_DEMO.pch" /Fo"Debug\\" /Fd"Debug\vc100.pdb" /Gd /TP /analyze- /errorReport:prompt E:\AUTHGURU HL LATEST DONGLE\AG_API_DEMO\AG_API_DEMO\STDAFX.CPP
^E:\AUTHGURU HL LATEST DONGLE\AG_API_DEMO\AG_API_DEMO\AG_API_DEMO.CPP
/c /ZI /nologo /W3 /WX- /Od /Oy- /D WIN32 /D _WINDOWS /D _DEBUG /D _MBCS /Gm /EHsc /RTC1 /MTd /GS /fp:precise /Zc:wchar_t /Zc:forScope /Yu"StdAfx.h" /Fp"Debug\AG_API_DEMO.pch" /Fo"Debug\\" /Fd"Debug\vc100.pdb" /Gd /TP /analyze- /errorReport:prompt E:\AUTHGURU HL LATEST DONGLE\AG_API_DEMO\AG_API_DEMO\AG_API_DEMO.CPP
^E:\AUTHGURU HL LATEST DONGLE\AG_API_DEMO\AG_API_DEMO\AG_API_DEMODLG.CPP
/c /ZI /nologo /W3 /WX- /Od /Oy- /D WIN32 /D _WINDOWS /D _DEBUG /D _MBCS /Gm /EHsc /RTC1 /MTd /GS /fp:precise /Zc:wchar_t /Zc:forScope /Yu"StdAfx.h" /Fp"Debug\AG_API_DEMO.pch" /Fo"Debug\\" /Fd"Debug\vc100.pdb" /Gd /TP /analyze- /errorReport:prompt E:\AUTHGURU HL LATEST DONGLE\AG_API_DEMO\AG_API_DEMO\AG_API_DEMODLG.CPP
