^E:\AUTHGURU HL LATEST DONGLE\AG_QUICKPROTECT\AG_QUICKPROTECT\STDAFX.CPP
E:\AUTHGURU HL LATEST DONGLE\AG_QUICKPROTECT\AG_QUICKPROTECT\DEBUG\AG_QUICKPROTECT.PCH
E:\AUTHGURU HL LATEST DONGLE\AG_QUICKPROTECT\AG_QUICKPROTECT\DEBUG\STDAFX.OBJ
E:\AUTHGURU HL LATEST DONGLE\AG_QUICKPROTECT\AG_QUICKPROTECT\DEBUG\VC100.PDB
^E:\AUTHGURU HL LATEST DONGLE\AG_QUICKPROTECT\AG_QUICKPROTECT\AG_QUICKPROTECT.CPP|E:\AUTHGURU HL LATEST DONGLE\AG_QUICKPROTECT\AG_QUICKPROTECT\AG_QUICKPROTECTDLG.CPP|E:\AUTHGURU HL LATEST DONGLE\AG_QUICKPROTECT\AG_QUICKPROTECT\ENCRYPT_DECRYPT.CPP|E:\AUTHGURU HL LATEST DONGLE\AG_QUICKPROTECT\AG_QUICKPROTECT\FILEDLG.CPP
E:\AUTHGURU HL LATEST DONGLE\AG_QUICKPROTECT\AG_QUICKPROTECT\DEBUG\AG_QUICKPROTECT.OBJ
E:\AUTHGURU HL LATEST DONGLE\AG_QUICKPROTECT\AG_QUICKPROTECT\DEBUG\AG_QUICKPROTECTDLG.OBJ
E:\AUTHGURU HL LATEST DONGLE\AG_QUICKPROTECT\AG_QUICKPROTECT\DEBUG\ENCRYPT_DECRYPT.OBJ
E:\AUTHGURU HL LATEST DONGLE\AG_QUICKPROTECT\AG_QUICKPROTECT\DEBUG\FILEDLG.OBJ
^E:\AUTHGURU HL LATEST DONGLE\AG_QUICKPROTECT\AG_QUICKPROTECT\AG_QUICKPROTECT.CPP
E:\AUTHGURU HL LATEST DONGLE\AG_QUICKPROTECT\AG_QUICKPROTECT\DEBUG\VC100.PDB
^E:\AUTHGURU HL LATEST DONGLE\AG_QUICKPROTECT\AG_QUICKPROTECT\AG_QUICKPROTECTDLG.CPP
E:\AUTHGURU HL LATEST DONGLE\AG_QUICKPROTECT\AG_QUICKPROTECT\DEBUG\VC100.PDB
^E:\AUTHGURU HL LATEST DONGLE\AG_QUICKPROTECT\AG_QUICKPROTECT\ENCRYPT_DECRYPT.CPP
E:\AUTHGURU HL LATEST DONGLE\AG_QUICKPROTECT\AG_QUICKPROTECT\DEBUG\VC100.PDB
^E:\AUTHGURU HL LATEST DONGLE\AG_QUICKPROTECT\AG_QUICKPROTECT\FILEDLG.CPP
E:\AUTHGURU HL LATEST DONGLE\AG_QUICKPROTECT\AG_QUICKPROTECT\DEBUG\VC100.PDB
