^E:\AUTHGURU HL LATEST DONGLE\AG_QUICKPROTECT\AG_QUICKPROTECT\AG_QUICKPROTECT.RC
E:\AUTHGURU HL LATEST DONGLE\AG_QUICKPROTECT\AG_QUICKPROTECT\RESOURCE.H
E:\AUTHGURU HL LATEST DONGLE\AG_QUICKPROTECT\AG_QUICKPROTECT\TARGETVER.H
C:\PROGRAM FILES (X86)\MICROSOFT SDKS\WINDOWS\V7.0A\INCLUDE\SDKDDKVER.H
C:\PROGRAM FILES (X86)\MICROSOFT VISUAL STUDIO 10.0\VC\ATLMFC\INCLUDE\AFXRES.H
C:\PROGRAM FILES (X86)\MICROSOFT VISUAL STUDIO 10.0\VC\ATLMFC\INCLUDE\WINRES.H
C:\PROGRAM FILES (X86)\MICROSOFT SDKS\WINDOWS\V7.0A\INCLUDE\WINRESRC.H
C:\PROGRAM FILES (X86)\MICROSOFT SDKS\WINDOWS\V7.0A\INCLUDE\WINUSER.RH
C:\PROGRAM FILES (X86)\MICROSOFT SDKS\WINDOWS\V7.0A\INCLUDE\COMMCTRL.RH
C:\PROGRAM FILES (X86)\MICROSOFT SDKS\WINDOWS\V7.0A\INCLUDE\DDE.RH
C:\PROGRAM FILES (X86)\MICROSOFT SDKS\WINDOWS\V7.0A\INCLUDE\WINNT.RH
C:\PROGRAM FILES (X86)\MICROSOFT SDKS\WINDOWS\V7.0A\INCLUDE\DLGS.H
C:\PROGRAM FILES (X86)\MICROSOFT SDKS\WINDOWS\V7.0A\INCLUDE\WINVER.H
C:\PROGRAM FILES (X86)\MICROSOFT SDKS\WINDOWS\V7.0A\INCLUDE\SPECSTRINGS.H
C:\PROGRAM FILES (X86)\MICROSOFT SDKS\WINDOWS\V7.0A\INCLUDE\SAL_SUPP.H
C:\PROGRAM FILES (X86)\MICROSOFT SDKS\WINDOWS\V7.0A\INCLUDE\SPECSTRINGS_SUPP.H
C:\PROGRAM FILES (X86)\MICROSOFT VISUAL STUDIO 10.0\VC\INCLUDE\SAL.H
C:\PROGRAM FILES (X86)\MICROSOFT SDKS\WINDOWS\V7.0A\INCLUDE\DRIVERSPECS.H
C:\PROGRAM FILES (X86)\MICROSOFT SDKS\WINDOWS\V7.0A\INCLUDE\SDV_DRIVERSPECS.H
C:\PROGRAM FILES (X86)\MICROSOFT SDKS\WINDOWS\V7.0A\INCLUDE\VERRSRC.H
E:\AUTHGURU HL LATEST DONGLE\AG_QUICKPROTECT\AG_QUICKPROTECT\RES\AG_QUICKPROTECT.RC2
C:\PROGRAM FILES (X86)\MICROSOFT VISUAL STUDIO 10.0\VC\ATLMFC\INCLUDE\AFXRES.RC
E:\AUTHGURU HL LATEST DONGLE\AG_QUICKPROTECT\AG_QUICKPROTECT\RES\AUTHGURU.ICO
E:\AUTHGURU HL LATEST DONGLE\AG_QUICKPROTECT\AG_QUICKPROTECT\RES\CALENDAR.ICO
E:\AUTHGURU HL LATEST DONGLE\AG_QUICKPROTECT\AG_QUICKPROTECT\RES\COMPUTER-LAPTOP.ICO
E:\AUTHGURU HL LATEST DONGLE\AG_QUICKPROTECT\AG_QUICKPROTECT\RES\DRIVE-HARDDISK-7.ICO
E:\AUTHGURU HL LATEST DONGLE\AG_QUICKPROTECT\AG_QUICKPROTECT\RES\GETINFO.ICO
E:\AUTHGURU HL LATEST DONGLE\AG_QUICKPROTECT\AG_QUICKPROTECT\RES\HDD.ICO
E:\AUTHGURU HL LATEST DONGLE\AG_QUICKPROTECT\AG_QUICKPROTECT\RES\VID.ICO
E:\AUTHGURU 5\TOOLS\PICS\BLUERAY_WALLPAPER_HD_NO_LOGO_BY_HOSENFELD.BMP
E:\AUTHGURU 5\TOOLS\PICS\IMG10.BMP
E:\AUTHGURU 5\TOOLS\PICS\IMG11.BMP
E:\AUTHGURU 5\TOOLS\PICS\IMG12.BMP
E:\AUTHGURU 5\TOOLS\PICS\IMG13.BMP
E:\AUTHGURU HL\TOOLS\PICS\LOGO.BMP
C:\PROGRAM FILES (X86)\MICROSOFT VISUAL STUDIO 10.0\VC\ATLMFC\INCLUDE\RES\HELP.CUR
C:\PROGRAM FILES (X86)\MICROSOFT VISUAL STUDIO 10.0\VC\ATLMFC\INCLUDE\RES\IM_PANN.CUR
C:\PROGRAM FILES (X86)\MICROSOFT VISUAL STUDIO 10.0\VC\ATLMFC\INCLUDE\RES\IM_PANS.CUR
C:\PROGRAM FILES (X86)\MICROSOFT VISUAL STUDIO 10.0\VC\ATLMFC\INCLUDE\RES\IM_PANE.CUR
C:\PROGRAM FILES (X86)\MICROSOFT VISUAL STUDIO 10.0\VC\ATLMFC\INCLUDE\RES\IM_PANW.CUR
C:\PROGRAM FILES (X86)\MICROSOFT VISUAL STUDIO 10.0\VC\ATLMFC\INCLUDE\RES\IM_PANNE.CUR
C:\PROGRAM FILES (X86)\MICROSOFT VISUAL STUDIO 10.0\VC\ATLMFC\INCLUDE\RES\IM_PANNW.CUR
C:\PROGRAM FILES (X86)\MICROSOFT VISUAL STUDIO 10.0\VC\ATLMFC\INCLUDE\RES\IM_PANSE.CUR
C:\PROGRAM FILES (X86)\MICROSOFT VISUAL STUDIO 10.0\VC\ATLMFC\INCLUDE\RES\IM_PANSW.CUR
C:\PROGRAM FILES (X86)\MICROSOFT VISUAL STUDIO 10.0\VC\ATLMFC\INCLUDE\RES\IM_PANH.CUR
C:\PROGRAM FILES (X86)\MICROSOFT VISUAL STUDIO 10.0\VC\ATLMFC\INCLUDE\RES\IM_PANV.CUR
C:\PROGRAM FILES (X86)\MICROSOFT VISUAL STUDIO 10.0\VC\ATLMFC\INCLUDE\RES\IM_PANHV.CUR
C:\PROGRAM FILES (X86)\MICROSOFT VISUAL STUDIO 10.0\VC\ATLMFC\INCLUDE\RES\IM_ORGH.CUR
C:\PROGRAM FILES (X86)\MICROSOFT VISUAL STUDIO 10.0\VC\ATLMFC\INCLUDE\RES\IM_ORGV.CUR
C:\PROGRAM FILES (X86)\MICROSOFT VISUAL STUDIO 10.0\VC\ATLMFC\INCLUDE\RES\IM_ORGHV.CUR
C:\PROGRAM FILES (X86)\MICROSOFT VISUAL STUDIO 10.0\VC\ATLMFC\INCLUDE\RES\MINIFWND.BMP
C:\PROGRAM FILES (X86)\MICROSOFT VISUAL STUDIO 10.0\VC\ATLMFC\INCLUDE\RES\95CHECK.BMP
^E:\AUTHGURU HL LATEST DONGLE\AG_QUICKPROTECT\AG_QUICKPROTECT\DEBUG\AG_QUICKPROTECT_MANIFEST.RC
E:\AUTHGURU HL LATEST DONGLE\AG_QUICKPROTECT\AG_QUICKPROTECT\DEBUG\AG_QUICKPROTECT.EXE.EMBED.MANIFEST
