^C:\AUTHGURU LONGMAI DONGLE\AG_SYSINFO\AKLM_SYSINFO\RELEASE\AG_SYSINFO.EXE.EMBED.MANIFEST.RES|C:\AUTHGURU LONGMAI DONGLE\AG_SYSINFO\AKLM_SYSINFO\RELEASE\AKLM_SYSINFO.OBJ|C:\AUTHGURU LONGMAI DONGLE\AG_SYSINFO\AKLM_SYSINFO\RELEASE\AKLM_SYSINFO.RES|C:\AUTHGURU LONGMAI DONGLE\AG_SYSINFO\AKLM_SYSINFO\RELEASE\AKLM_SYSINFODLG.OBJ|C:\AUTHGURU LONGMAI DONGLE\AG_SYSINFO\AKLM_SYSINFO\RELEASE\DATE_YEAR.OBJ|C:\AUTHGURU LONGMAI DONGLE\AG_SYSINFO\AKLM_SYSINFO\RELEASE\DIVIDEINFO.OBJ|C:\AUTHGURU LONGMAI DONGLE\AG_SYSINFO\AKLM_SYSINFO\RELEASE\ENCRYPT_DECRYPT.OBJ|C:\AUTHGURU LONGMAI DONGLE\AG_SYSINFO\AKLM_SYSINFO\RELEASE\FILEDLG.OBJ|C:\AUTHGURU LONGMAI DONGLE\AG_SYSINFO\AKLM_SYSINFO\RELEASE\HARDDISKID.OBJ|C:\AUTHGURU LONGMAI DONGLE\AG_SYSINFO\AKLM_SYSINFO\RELEASE\MAC.OBJ|C:\AUTHGURU LONGMAI DONGLE\AG_SYSINFO\AKLM_SYSINFO\RELEASE\READWRITESECTOR.OBJ|C:\AUTHGURU LONGMAI DONGLE\AG_SYSINFO\AKLM_SYSINFO\RELEASE\STDAFX.OBJ
C:\AUTHGURU LONGMAI DONGLE\AG_SYSINFO\AKLM_SYSINFO\RELEASE\AG_SYSINFO.EXE
C:\AUTHGURU LONGMAI DONGLE\AG_SYSINFO\AKLM_SYSINFO\RELEASE\AG_SYSINFO.EXE.INTERMEDIATE.MANIFEST
C:\AUTHGURU LONGMAI DONGLE\AG_SYSINFO\AKLM_SYSINFO\RELEASE\AG_SYSINFO.PDB
