E:\DELPHI\AUTHGURU\AG_CLIENT\AG_CLIENT\RELEASE\AG_CLIENT.OBJ
E:\DELPHI\AUTHGURU\AG_CLIENT\AG_CLIENT\RELEASE\AG_CLIENT.PCH
E:\DELPHI\AUTHGURU\AG_CLIENT\AG_CLIENT\RELEASE\AG_CLIENT.RES
E:\Delphi\Authguru\AG_CLIENT\AG_CLIENT\Release\cl.command.1.tlog
E:\Delphi\Authguru\AG_CLIENT\AG_CLIENT\Release\CL.read.1.tlog
E:\Delphi\Authguru\AG_CLIENT\AG_CLIENT\Release\CL.write.1.tlog
E:\DELPHI\AUTHGURU\AG_CLIENT\AG_CLIENT\RELEASE\DATE_YEAR.OBJ
E:\DELPHI\AUTHGURU\AG_CLIENT\AG_CLIENT\RELEASE\DIVIDEINFO.OBJ
E:\DELPHI\AUTHGURU\AG_CLIENT\AG_CLIENT\RELEASE\ENCRYPT_DECRYPT.OBJ
E:\DELPHI\AUTHGURU\AG_CLIENT\AG_CLIENT\RELEASE\HARDDISKID.OBJ
E:\Delphi\Authguru\AG_CLIENT\AG_CLIENT\Release\lib.command.1.tlog
E:\Delphi\Authguru\AG_CLIENT\AG_CLIENT\Release\Lib-link.read.1.tlog
E:\Delphi\Authguru\AG_CLIENT\AG_CLIENT\Release\Lib-link.write.1.tlog
E:\Delphi\Authguru\AG_CLIENT\AG_CLIENT\Release\Lib-link-cvtres.read.1.tlog
E:\Delphi\Authguru\AG_CLIENT\AG_CLIENT\Release\Lib-link-cvtres.write.1.tlog
E:\DELPHI\AUTHGURU\AG_CLIENT\AG_CLIENT\RELEASE\MAC.OBJ
E:\Delphi\Authguru\AG_CLIENT\AG_CLIENT\Release\rc.command.1.tlog
E:\Delphi\Authguru\AG_CLIENT\AG_CLIENT\Release\rc.read.1.tlog
E:\Delphi\Authguru\AG_CLIENT\AG_CLIENT\Release\rc.write.1.tlog
E:\DELPHI\AUTHGURU\AG_CLIENT\AG_CLIENT\RELEASE\READWRITESECTOR.OBJ
E:\DELPHI\AUTHGURU\AG_CLIENT\AG_CLIENT\RELEASE\STDAFX.OBJ
E:\DELPHI\AUTHGURU\AG_CLIENT\RELEASE\AG_CLIENT.LIB
