^C:\AUTHGURU LONGMAI DONGLE\SERVICENEW\SERVICENEW\STDAFX.CPP
C:\AUTHGURU LONGMAI DONGLE\SERVICENEW\SERVICENEW\RELEASE\AUTHSERVER.PCH
C:\AUTHGURU LONGMAI DONGLE\SERVICENEW\SERVICENEW\RELEASE\STDAFX.OBJ
C:\AUTHGURU LONGMAI DONGLE\SERVICENEW\SERVICENEW\RELEASE\VC100.PDB
^C:\AUTHGURU LONGMAI DONGLE\SERVICENEW\SERVICENEW\AG_LICENSE.CPP|C:\AUTHGURU LONGMAI DONGLE\SERVICENEW\SERVICENEW\DATE_YEAR.CPP|C:\AUTHGURU LONGMAI DONGLE\SERVICENEW\SERVICENEW\DIVIDEINFO.CPP|C:\AUTHGURU LONGMAI DONGLE\SERVICENEW\SERVICENEW\ENCRYPT_DECRYPT.CPP|C:\AUTHGURU LONGMAI DONGLE\SERVICENEW\SERVICENEW\HARDDISKID.CPP|C:\AUTHGURU LONGMAI DONGLE\SERVICENEW\SERVICENEW\READWRITESECTOR.CPP|C:\AUTHGURU LONGMAI DONGLE\SERVICENEW\SERVICENEW\SERVICENEW.CPP
C:\AUTHGURU LONGMAI DONGLE\SERVICENEW\SERVICENEW\RELEASE\SERVICENEW.OBJ
C:\AUTHGURU LONGMAI DONGLE\SERVICENEW\SERVICENEW\RELEASE\READWRITESECTOR.OBJ
C:\AUTHGURU LONGMAI DONGLE\SERVICENEW\SERVICENEW\RELEASE\HARDDISKID.OBJ
C:\AUTHGURU LONGMAI DONGLE\SERVICENEW\SERVICENEW\RELEASE\ENCRYPT_DECRYPT.OBJ
C:\AUTHGURU LONGMAI DONGLE\SERVICENEW\SERVICENEW\RELEASE\DIVIDEINFO.OBJ
C:\AUTHGURU LONGMAI DONGLE\SERVICENEW\SERVICENEW\RELEASE\DATE_YEAR.OBJ
C:\AUTHGURU LONGMAI DONGLE\SERVICENEW\SERVICENEW\RELEASE\AG_LICENSE.OBJ
^C:\AUTHGURU LONGMAI DONGLE\SERVICENEW\SERVICENEW\AG_LICENSE.CPP
C:\AUTHGURU LONGMAI DONGLE\SERVICENEW\SERVICENEW\RELEASE\VC100.PDB
^C:\AUTHGURU LONGMAI DONGLE\SERVICENEW\SERVICENEW\DATE_YEAR.CPP
C:\AUTHGURU LONGMAI DONGLE\SERVICENEW\SERVICENEW\RELEASE\VC100.PDB
^C:\AUTHGURU LONGMAI DONGLE\SERVICENEW\SERVICENEW\DIVIDEINFO.CPP
C:\AUTHGURU LONGMAI DONGLE\SERVICENEW\SERVICENEW\RELEASE\VC100.PDB
^C:\AUTHGURU LONGMAI DONGLE\SERVICENEW\SERVICENEW\ENCRYPT_DECRYPT.CPP
C:\AUTHGURU LONGMAI DONGLE\SERVICENEW\SERVICENEW\RELEASE\VC100.PDB
^C:\AUTHGURU LONGMAI DONGLE\SERVICENEW\SERVICENEW\HARDDISKID.CPP
C:\AUTHGURU LONGMAI DONGLE\SERVICENEW\SERVICENEW\RELEASE\VC100.PDB
^C:\AUTHGURU LONGMAI DONGLE\SERVICENEW\SERVICENEW\READWRITESECTOR.CPP
C:\AUTHGURU LONGMAI DONGLE\SERVICENEW\SERVICENEW\RELEASE\VC100.PDB
^C:\AUTHGURU LONGMAI DONGLE\SERVICENEW\SERVICENEW\SERVICENEW.CPP
C:\AUTHGURU LONGMAI DONGLE\SERVICENEW\SERVICENEW\RELEASE\VC100.PDB
