^E:\AUTHGURU HL LATEST DONGLE\AG_SYSINFO_DECRYPT\AKLM_SYSINFO_DECRYPT\STDAFX.CPP
/c /ZI /nologo /W3 /WX- /Od /Oy- /D WIN32 /D _WINDOWS /D _DEBUG /D _MBCS /Gm /EHsc /RTC1 /MTd /GS /fp:precise /Zc:wchar_t /Zc:forScope /Yc"StdAfx.h" /Fp"Debug\AKLM_sysinfo_decrypt.pch" /Fo"Debug\\" /Fd"Debug\vc100.pdb" /Gd /TP /analyze- /errorReport:prompt E:\AUTHGURU HL LATEST DONGLE\AG_SYSINFO_DECRYPT\AKLM_SYSINFO_DECRYPT\STDAFX.CPP
^E:\AUTHGURU HL LATEST DONGLE\AG_SYSINFO_DECRYPT\AKLM_SYSINFO_DECRYPT\AKLM_SYSINFO_DECRYPT.CPP
/c /ZI /nologo /W3 /WX- /Od /Oy- /D WIN32 /D _WINDOWS /D _DEBUG /D _MBCS /Gm /EHsc /RTC1 /MTd /GS /fp:precise /Zc:wchar_t /Zc:forScope /Yu"StdAfx.h" /Fp"Debug\AKLM_sysinfo_decrypt.pch" /Fo"Debug\\" /Fd"Debug\vc100.pdb" /Gd /TP /analyze- /errorReport:prompt E:\AUTHGURU HL LATEST DONGLE\AG_SYSINFO_DECRYPT\AKLM_SYSINFO_DECRYPT\AKLM_SYSINFO_DECRYPT.CPP
^E:\AUTHGURU HL LATEST DONGLE\AG_SYSINFO_DECRYPT\AKLM_SYSINFO_DECRYPT\AKLM_SYSINFO_DECRYPTDLG.CPP
/c /ZI /nologo /W3 /WX- /Od /Oy- /D WIN32 /D _WINDOWS /D _DEBUG /D _MBCS /Gm /EHsc /RTC1 /MTd /GS /fp:precise /Zc:wchar_t /Zc:forScope /Yu"StdAfx.h" /Fp"Debug\AKLM_sysinfo_decrypt.pch" /Fo"Debug\\" /Fd"Debug\vc100.pdb" /Gd /TP /analyze- /errorReport:prompt E:\AUTHGURU HL LATEST DONGLE\AG_SYSINFO_DECRYPT\AKLM_SYSINFO_DECRYPT\AKLM_SYSINFO_DECRYPTDLG.CPP
^E:\AUTHGURU HL LATEST DONGLE\AG_SYSINFO_DECRYPT\AKLM_SYSINFO_DECRYPT\DIVIDEINFO.CPP
/c /ZI /nologo /W3 /WX- /Od /Oy- /D WIN32 /D _WINDOWS /D _DEBUG /D _MBCS /Gm /EHsc /RTC1 /MTd /GS /fp:precise /Zc:wchar_t /Zc:forScope /Yu"StdAfx.h" /Fp"Debug\AKLM_sysinfo_decrypt.pch" /Fo"Debug\\" /Fd"Debug\vc100.pdb" /Gd /TP /analyze- /errorReport:prompt E:\AUTHGURU HL LATEST DONGLE\AG_SYSINFO_DECRYPT\AKLM_SYSINFO_DECRYPT\DIVIDEINFO.CPP
^E:\AUTHGURU HL LATEST DONGLE\AG_SYSINFO_DECRYPT\AKLM_SYSINFO_DECRYPT\ENCRYPT_DECRYPT.CPP
/c /ZI /nologo /W3 /WX- /Od /Oy- /D WIN32 /D _WINDOWS /D _DEBUG /D _MBCS /Gm /EHsc /RTC1 /MTd /GS /fp:precise /Zc:wchar_t /Zc:forScope /Yu"StdAfx.h" /Fp"Debug\AKLM_sysinfo_decrypt.pch" /Fo"Debug\\" /Fd"Debug\vc100.pdb" /Gd /TP /analyze- /errorReport:prompt E:\AUTHGURU HL LATEST DONGLE\AG_SYSINFO_DECRYPT\AKLM_SYSINFO_DECRYPT\ENCRYPT_DECRYPT.CPP
^E:\AUTHGURU HL LATEST DONGLE\AG_SYSINFO_DECRYPT\AKLM_SYSINFO_DECRYPT\FILEDLG.CPP
/c /ZI /nologo /W3 /WX- /Od /Oy- /D WIN32 /D _WINDOWS /D _DEBUG /D _MBCS /Gm /EHsc /RTC1 /MTd /GS /fp:precise /Zc:wchar_t /Zc:forScope /Yu"StdAfx.h" /Fp"Debug\AKLM_sysinfo_decrypt.pch" /Fo"Debug\\" /Fd"Debug\vc100.pdb" /Gd /TP /analyze- /errorReport:prompt E:\AUTHGURU HL LATEST DONGLE\AG_SYSINFO_DECRYPT\AKLM_SYSINFO_DECRYPT\FILEDLG.CPP
