^D:\AUTHGURU 4 PROFESSIONAL\AG_CLIENT_64\AG_CLIENT\STDAFX.CPP
/c /ZI /nologo /W3 /WX- /Od /Oy- /D WIN32 /D _DEBUG /D _LIB /D _WINDLL /D _MBCS /Gm /EHsc /RTC1 /MT /GS /fp:precise /Zc:wchar_t /Zc:forScope /Yc"StdAfx.h" /Fp"Debug\AG_CLIENT_64.pch" /Fo"Debug\\" /Fd"Debug\vc100.pdb" /Gd /TP /analyze- /errorReport:prompt D:\AUTHGURU 4 PROFESSIONAL\AG_CLIENT_64\AG_CLIENT\STDAFX.CPP
^D:\AUTHGURU 4 PROFESSIONAL\AG_CLIENT_64\AG_CLIENT\AG_CLIENT.CPP
/c /ZI /nologo /W3 /WX- /Od /Oy- /D WIN32 /D _DEBUG /D _LIB /D _WINDLL /D _MBCS /Gm /EHsc /RTC1 /MT /GS /fp:precise /Zc:wchar_t /Zc:forScope /Yu"StdAfx.h" /Fp"Debug\AG_CLIENT_64.pch" /Fo"Debug\\" /Fd"Debug\vc100.pdb" /Gd /TP /analyze- /errorReport:prompt D:\AUTHGURU 4 PROFESSIONAL\AG_CLIENT_64\AG_CLIENT\AG_CLIENT.CPP
^D:\AUTHGURU 4 PROFESSIONAL\AG_CLIENT_64\AG_CLIENT\DATE_YEAR.CPP
/c /ZI /nologo /W3 /WX- /Od /Oy- /D WIN32 /D _DEBUG /D _LIB /D _WINDLL /D _MBCS /Gm /EHsc /RTC1 /MT /GS /fp:precise /Zc:wchar_t /Zc:forScope /Yu"StdAfx.h" /Fp"Debug\AG_CLIENT_64.pch" /Fo"Debug\\" /Fd"Debug\vc100.pdb" /Gd /TP /analyze- /errorReport:prompt D:\AUTHGURU 4 PROFESSIONAL\AG_CLIENT_64\AG_CLIENT\DATE_YEAR.CPP
^D:\AUTHGURU 4 PROFESSIONAL\AG_CLIENT_64\AG_CLIENT\DIVIDEINFO.CPP
/c /ZI /nologo /W3 /WX- /Od /Oy- /D WIN32 /D _DEBUG /D _LIB /D _WINDLL /D _MBCS /Gm /EHsc /RTC1 /MT /GS /fp:precise /Zc:wchar_t /Zc:forScope /Yu"StdAfx.h" /Fp"Debug\AG_CLIENT_64.pch" /Fo"Debug\\" /Fd"Debug\vc100.pdb" /Gd /TP /analyze- /errorReport:prompt D:\AUTHGURU 4 PROFESSIONAL\AG_CLIENT_64\AG_CLIENT\DIVIDEINFO.CPP
^D:\AUTHGURU 4 PROFESSIONAL\AG_CLIENT_64\AG_CLIENT\ENCRYPT_DECRYPT.CPP
/c /ZI /nologo /W3 /WX- /Od /Oy- /D WIN32 /D _DEBUG /D _LIB /D _WINDLL /D _MBCS /Gm /EHsc /RTC1 /MT /GS /fp:precise /Zc:wchar_t /Zc:forScope /Yu"StdAfx.h" /Fp"Debug\AG_CLIENT_64.pch" /Fo"Debug\\" /Fd"Debug\vc100.pdb" /Gd /TP /analyze- /errorReport:prompt D:\AUTHGURU 4 PROFESSIONAL\AG_CLIENT_64\AG_CLIENT\ENCRYPT_DECRYPT.CPP
^D:\AUTHGURU 4 PROFESSIONAL\AG_CLIENT_64\AG_CLIENT\HARDDISKID.CPP
/c /ZI /nologo /W3 /WX- /Od /Oy- /D WIN32 /D _DEBUG /D _LIB /D _WINDLL /D _MBCS /Gm /EHsc /RTC1 /MT /GS /fp:precise /Zc:wchar_t /Zc:forScope /Yu"StdAfx.h" /Fp"Debug\AG_CLIENT_64.pch" /Fo"Debug\\" /Fd"Debug\vc100.pdb" /Gd /TP /analyze- /errorReport:prompt D:\AUTHGURU 4 PROFESSIONAL\AG_CLIENT_64\AG_CLIENT\HARDDISKID.CPP
^D:\AUTHGURU 4 PROFESSIONAL\AG_CLIENT_64\AG_CLIENT\MAC.CPP
/c /ZI /nologo /W3 /WX- /Od /Oy- /D WIN32 /D _DEBUG /D _LIB /D _WINDLL /D _MBCS /Gm /EHsc /RTC1 /MT /GS /fp:precise /Zc:wchar_t /Zc:forScope /Yu"StdAfx.h" /Fp"Debug\AG_CLIENT_64.pch" /Fo"Debug\\" /Fd"Debug\vc100.pdb" /Gd /TP /analyze- /errorReport:prompt D:\AUTHGURU 4 PROFESSIONAL\AG_CLIENT_64\AG_CLIENT\MAC.CPP
^D:\AUTHGURU 4 PROFESSIONAL\AG_CLIENT_64\AG_CLIENT\READWRITESECTOR.CPP
/c /ZI /nologo /W3 /WX- /Od /Oy- /D WIN32 /D _DEBUG /D _LIB /D _WINDLL /D _MBCS /Gm /EHsc /RTC1 /MT /GS /fp:precise /Zc:wchar_t /Zc:forScope /Yu"StdAfx.h" /Fp"Debug\AG_CLIENT_64.pch" /Fo"Debug\\" /Fd"Debug\vc100.pdb" /Gd /TP /analyze- /errorReport:prompt D:\AUTHGURU 4 PROFESSIONAL\AG_CLIENT_64\AG_CLIENT\READWRITESECTOR.CPP
^D:\AUTHGURU 4 PROFESSIONAL\DEBUG\AG_CLIENT_64\AG_CLIENT\STDAFX.CPP
/c /ZI /nologo /W3 /WX- /Od /Oy- /D WIN32 /D _DEBUG /D _LIB /D _WINDLL /D _MBCS /Gm /EHsc /RTC1 /MT /GS /fp:precise /Zc:wchar_t /Zc:forScope /Yc"StdAfx.h" /Fp"Debug\AG_CLIENT_64.pch" /Fo"Debug\\" /Fd"Debug\vc100.pdb" /Gd /TP /analyze- /errorReport:prompt D:\AUTHGURU 4 PROFESSIONAL\DEBUG\AG_CLIENT_64\AG_CLIENT\STDAFX.CPP
^D:\AUTHGURU 4 PROFESSIONAL\DEBUG\AG_CLIENT_64\AG_CLIENT\AG_CLIENT.CPP
/c /ZI /nologo /W3 /WX- /Od /Oy- /D WIN32 /D _DEBUG /D _LIB /D _WINDLL /D _MBCS /Gm /EHsc /RTC1 /MT /GS /fp:precise /Zc:wchar_t /Zc:forScope /Yu"StdAfx.h" /Fp"Debug\AG_CLIENT_64.pch" /Fo"Debug\\" /Fd"Debug\vc100.pdb" /Gd /TP /analyze- /errorReport:prompt D:\AUTHGURU 4 PROFESSIONAL\DEBUG\AG_CLIENT_64\AG_CLIENT\AG_CLIENT.CPP
^D:\AUTHGURU 4 PROFESSIONAL\DEBUG\AG_CLIENT_64\AG_CLIENT\DATE_YEAR.CPP
/c /ZI /nologo /W3 /WX- /Od /Oy- /D WIN32 /D _DEBUG /D _LIB /D _WINDLL /D _MBCS /Gm /EHsc /RTC1 /MT /GS /fp:precise /Zc:wchar_t /Zc:forScope /Yu"StdAfx.h" /Fp"Debug\AG_CLIENT_64.pch" /Fo"Debug\\" /Fd"Debug\vc100.pdb" /Gd /TP /analyze- /errorReport:prompt D:\AUTHGURU 4 PROFESSIONAL\DEBUG\AG_CLIENT_64\AG_CLIENT\DATE_YEAR.CPP
^D:\AUTHGURU 4 PROFESSIONAL\DEBUG\AG_CLIENT_64\AG_CLIENT\DIVIDEINFO.CPP
/c /ZI /nologo /W3 /WX- /Od /Oy- /D WIN32 /D _DEBUG /D _LIB /D _WINDLL /D _MBCS /Gm /EHsc /RTC1 /MT /GS /fp:precise /Zc:wchar_t /Zc:forScope /Yu"StdAfx.h" /Fp"Debug\AG_CLIENT_64.pch" /Fo"Debug\\" /Fd"Debug\vc100.pdb" /Gd /TP /analyze- /errorReport:prompt D:\AUTHGURU 4 PROFESSIONAL\DEBUG\AG_CLIENT_64\AG_CLIENT\DIVIDEINFO.CPP
^D:\AUTHGURU 4 PROFESSIONAL\DEBUG\AG_CLIENT_64\AG_CLIENT\ENCRYPT_DECRYPT.CPP
/c /ZI /nologo /W3 /WX- /Od /Oy- /D WIN32 /D _DEBUG /D _LIB /D _WINDLL /D _MBCS /Gm /EHsc /RTC1 /MT /GS /fp:precise /Zc:wchar_t /Zc:forScope /Yu"StdAfx.h" /Fp"Debug\AG_CLIENT_64.pch" /Fo"Debug\\" /Fd"Debug\vc100.pdb" /Gd /TP /analyze- /errorReport:prompt D:\AUTHGURU 4 PROFESSIONAL\DEBUG\AG_CLIENT_64\AG_CLIENT\ENCRYPT_DECRYPT.CPP
^D:\AUTHGURU 4 PROFESSIONAL\DEBUG\AG_CLIENT_64\AG_CLIENT\HARDDISKID.CPP
/c /ZI /nologo /W3 /WX- /Od /Oy- /D WIN32 /D _DEBUG /D _LIB /D _WINDLL /D _MBCS /Gm /EHsc /RTC1 /MT /GS /fp:precise /Zc:wchar_t /Zc:forScope /Yu"StdAfx.h" /Fp"Debug\AG_CLIENT_64.pch" /Fo"Debug\\" /Fd"Debug\vc100.pdb" /Gd /TP /analyze- /errorReport:prompt D:\AUTHGURU 4 PROFESSIONAL\DEBUG\AG_CLIENT_64\AG_CLIENT\HARDDISKID.CPP
^D:\AUTHGURU 4 PROFESSIONAL\DEBUG\AG_CLIENT_64\AG_CLIENT\MAC.CPP
/c /ZI /nologo /W3 /WX- /Od /Oy- /D WIN32 /D _DEBUG /D _LIB /D _WINDLL /D _MBCS /Gm /EHsc /RTC1 /MT /GS /fp:precise /Zc:wchar_t /Zc:forScope /Yu"StdAfx.h" /Fp"Debug\AG_CLIENT_64.pch" /Fo"Debug\\" /Fd"Debug\vc100.pdb" /Gd /TP /analyze- /errorReport:prompt D:\AUTHGURU 4 PROFESSIONAL\DEBUG\AG_CLIENT_64\AG_CLIENT\MAC.CPP
^D:\AUTHGURU 4 PROFESSIONAL\DEBUG\AG_CLIENT_64\AG_CLIENT\READWRITESECTOR.CPP
/c /ZI /nologo /W3 /WX- /Od /Oy- /D WIN32 /D _DEBUG /D _LIB /D _WINDLL /D _MBCS /Gm /EHsc /RTC1 /MT /GS /fp:precise /Zc:wchar_t /Zc:forScope /Yu"StdAfx.h" /Fp"Debug\AG_CLIENT_64.pch" /Fo"Debug\\" /Fd"Debug\vc100.pdb" /Gd /TP /analyze- /errorReport:prompt D:\AUTHGURU 4 PROFESSIONAL\DEBUG\AG_CLIENT_64\AG_CLIENT\READWRITESECTOR.CPP
